# Blender v2.91.2 OBJ File: 'tissue.blend'
# www.blender.org
mtllib tissue_roll.mtl
o Cylinder.001_Cylinder.002
v 0.059874 1.158163 -0.635353
v 0.075799 1.171511 0.620119
v 0.114878 1.139537 -0.633998
v 0.130803 1.152885 0.621473
v 0.165193 1.110547 -0.632440
v 0.181118 1.123894 0.623032
v 0.208884 1.072306 -0.630738
v 0.224809 1.085654 0.624734
v 0.244274 1.026285 -0.628957
v 0.260199 1.039632 0.626514
v 0.270001 0.974252 -0.627166
v 0.285926 0.987599 0.628305
v 0.285077 0.918206 -0.625434
v 0.301003 0.931553 0.630037
v 0.288924 0.860301 -0.623827
v 0.304849 0.873649 0.631644
v 0.281392 0.802763 -0.622408
v 0.297317 0.816111 0.633064
v 0.262772 0.747803 -0.621230
v 0.278697 0.761150 0.634242
v 0.233779 0.697533 -0.620338
v 0.249704 0.710880 0.635133
v 0.195527 0.653884 -0.619768
v 0.211452 0.667231 0.635704
v 0.149486 0.618534 -0.619541
v 0.165411 0.631882 0.635931
v 0.097426 0.592842 -0.619666
v 0.113351 0.606189 0.635806
v 0.041347 0.577795 -0.620137
v 0.057272 0.591142 0.635334
v -0.016596 0.573971 -0.620938
v -0.000671 0.587318 0.634534
v -0.074176 0.581517 -0.622036
v -0.058251 0.594864 0.633435
v -0.129180 0.600143 -0.623391
v -0.113255 0.613490 0.632081
v -0.179495 0.629133 -0.624949
v -0.163570 0.642481 0.630523
v -0.223187 0.667374 -0.626651
v -0.207261 0.680721 0.628820
v -0.258576 0.713395 -0.628432
v -0.242651 0.726743 0.627040
v -0.284303 0.765429 -0.630222
v -0.268378 0.778776 0.625249
v -0.299380 0.821474 -0.631955
v -0.283455 0.834822 0.623517
v -0.303226 0.879379 -0.633561
v -0.287301 0.892726 0.621910
v -0.295694 0.936917 -0.634981
v -0.279769 0.950264 0.620490
v -0.277074 0.991877 -0.636159
v -0.261149 1.005225 0.619312
v -0.248081 1.042148 -0.637051
v -0.232156 1.055495 0.618421
v -0.209829 1.085796 -0.637621
v -0.193904 1.099144 0.617851
v -0.163788 1.121146 -0.637848
v -0.147863 1.134493 0.617624
v -0.111728 1.146838 -0.637723
v -0.095802 1.160185 0.617748
v -0.055649 1.161885 -0.637252
v -0.039723 1.175233 0.618220
v 0.002294 1.165709 -0.636451
v 0.018219 1.179057 0.619020
v 0.154276 1.527363 -0.954394
v 0.156578 1.554844 0.929533
v 0.281386 1.484292 -0.953890
v 0.282874 1.512048 0.930034
v 0.397651 1.417254 -0.952964
v 0.398394 1.445440 0.930954
v 0.498602 1.328825 -0.951650
v 0.498698 1.357578 0.932260
v 0.580360 1.222405 -0.949999
v 0.579933 1.251839 0.933900
v 0.639783 1.102082 -0.948075
v 0.638975 1.132286 0.935811
v 0.674587 0.972480 -0.945952
v 0.673556 1.003515 0.937921
v 0.683435 0.838580 -0.943710
v 0.682348 0.870473 0.940148
v 0.665987 0.705528 -0.941437
v 0.665011 0.738273 0.942407
v 0.622913 0.578437 -0.939220
v 0.622214 0.611996 0.944610
v 0.555870 0.462191 -0.937144
v 0.555599 0.496494 0.946673
v 0.467432 0.361257 -0.935288
v 0.467728 0.396206 0.948517
v 0.360999 0.279513 -0.933724
v 0.361976 0.314986 0.950071
v 0.240660 0.220102 -0.932512
v 0.242409 0.255956 0.951275
v 0.111041 0.185307 -0.931699
v 0.113620 0.221383 0.952083
v -0.022877 0.176464 -0.931315
v -0.019441 0.212597 0.952464
v -0.155948 0.193913 -0.931377
v -0.151659 0.229934 0.952403
v -0.283059 0.236984 -0.931880
v -0.277956 0.272730 0.951902
v -0.399323 0.304023 -0.932807
v -0.393476 0.339339 0.950982
v -0.500275 0.392451 -0.934121
v -0.493780 0.427201 0.949677
v -0.582033 0.498872 -0.935771
v -0.575015 0.532940 0.948036
v -0.641455 0.619195 -0.937695
v -0.634057 0.652492 0.946125
v -0.676260 0.748797 -0.939819
v -0.668638 0.781264 0.944015
v -0.685108 0.882696 -0.942060
v -0.677430 0.914306 0.941788
v -0.667660 1.015749 -0.944333
v -0.660093 1.046506 0.939529
v -0.624586 1.142840 -0.946550
v -0.617295 1.172783 0.937326
v -0.557542 1.259086 -0.948627
v -0.550681 1.288285 0.935263
v -0.469104 1.360020 -0.950483
v -0.462809 1.388573 0.933419
v -0.362670 1.441764 -0.952047
v -0.357057 1.469792 0.931865
v -0.242332 1.501174 -0.953259
v -0.237490 1.528823 0.930661
v -0.112713 1.535970 -0.954072
v -0.108701 1.563395 0.929853
v 0.021205 1.544813 -0.954455
v 0.024359 1.572181 0.929472
v 0.157323 1.558047 0.929478
v 0.284229 1.515044 0.929981
v 0.400308 1.448114 0.930906
v 0.501097 1.359827 0.932217
v 0.582724 1.253577 0.933865
v 0.642052 1.133446 0.935786
v 0.676801 1.004052 0.937907
v 0.685635 0.870367 0.940144
v 0.668215 0.737528 0.942414
v 0.625210 0.610640 0.944627
v 0.558273 0.494580 0.946701
v 0.469977 0.393807 0.948553
v 0.363714 0.312195 0.950115
v 0.243569 0.252879 0.951325
v 0.114157 0.218139 0.952137
v -0.019546 0.209310 0.952519
v -0.152405 0.226732 0.952458
v -0.279311 0.269734 0.951955
v -0.395390 0.336665 0.951030
v -0.496180 0.424952 0.949719
v -0.577807 0.531202 0.948071
v -0.637134 0.651332 0.946150
v -0.671883 0.780727 0.944030
v -0.680717 0.914412 0.941792
v -0.663297 1.047251 0.939523
v -0.620292 1.174139 0.937309
v -0.553355 1.290199 0.935236
v -0.465059 1.390972 0.933383
v -0.358796 1.472584 0.931821
v -0.238650 1.531900 0.930611
v -0.109238 1.566639 0.929799
v 0.024465 1.575468 0.929417
v 0.057794 1.161806 -0.949328
v 0.114155 1.142720 -0.947984
v 0.165711 1.113014 -0.946431
v 0.210480 1.073829 -0.944730
v 0.246742 1.026672 -0.942946
v 0.273104 0.973353 -0.941148
v 0.288551 0.915924 -0.939404
v 0.292492 0.856589 -0.937782
v 0.284774 0.797631 -0.936344
v 0.265694 0.741313 -0.935145
v 0.235985 0.689802 -0.934231
v 0.196788 0.645075 -0.933638
v 0.149611 0.608853 -0.933388
v 0.096266 0.582526 -0.933491
v 0.038803 0.567107 -0.933943
v -0.020569 0.563189 -0.934727
v -0.079570 0.570921 -0.935811
v -0.135931 0.590007 -0.937156
v -0.187486 0.619713 -0.938709
v -0.232255 0.658898 -0.940409
v -0.268518 0.706056 -0.942194
v -0.294879 0.759374 -0.943992
v -0.310327 0.816804 -0.945736
v -0.314267 0.876138 -0.947358
v -0.306549 0.935097 -0.948796
v -0.287469 0.991414 -0.949995
v -0.257760 1.042926 -0.950909
v -0.218563 1.087653 -0.951502
v -0.171386 1.123875 -0.951751
v -0.118041 1.150202 -0.951648
v -0.060578 1.165620 -0.951197
v -0.001206 1.169539 -0.950413
v 0.081200 1.182139 0.933893
v 0.137567 1.163051 0.935238
v 0.189128 1.133341 0.936791
v 0.233902 1.094152 0.938492
v 0.270168 1.046989 0.940276
v 0.296533 0.993665 0.942075
v 0.311982 0.936229 0.943819
v 0.315923 0.876888 0.945441
v 0.308204 0.817923 0.946880
v 0.289122 0.761600 0.948079
v 0.259410 0.710082 0.948992
v 0.220209 0.665351 0.949586
v 0.173027 0.629125 0.949835
v 0.119676 0.602795 0.949732
v 0.062207 0.587375 0.949280
v 0.002828 0.583456 0.948497
v -0.056179 0.591189 0.947412
v -0.112546 0.610277 0.946067
v -0.164107 0.639986 0.944515
v -0.208881 0.679176 0.942814
v -0.245147 0.726338 0.941029
v -0.271512 0.779662 0.939231
v -0.286961 0.837099 0.937487
v -0.290902 0.896439 0.935864
v -0.283183 0.955405 0.934426
v -0.264101 1.011728 0.933227
v -0.234388 1.063245 0.932313
v -0.195188 1.107977 0.931720
v -0.148005 1.144203 0.931470
v -0.094655 1.170533 0.931573
v -0.037185 1.185953 0.932025
v 0.022193 1.189872 0.932809
v 0.109121 1.126813 -0.633748
v 0.056712 1.144561 -0.635038
v 0.072637 1.157908 0.620433
v 0.125046 1.140161 0.621724
v 0.157062 1.099190 -0.632263
v 0.172987 1.112538 0.623208
v 0.198692 1.062754 -0.630641
v 0.214617 1.076102 0.624830
v 0.232412 1.018904 -0.628945
v 0.248337 1.032251 0.626527
v 0.256925 0.969326 -0.627238
v 0.272850 0.982673 0.628233
v 0.271291 0.915924 -0.625588
v 0.287216 0.929271 0.629884
v 0.274955 0.860751 -0.624057
v 0.290881 0.874099 0.631414
v 0.267779 0.805928 -0.622704
v 0.283704 0.819275 0.632767
v 0.250037 0.753561 -0.621582
v 0.265963 0.766908 0.633890
v 0.222412 0.705662 -0.620732
v 0.238337 0.719009 0.634739
v 0.185965 0.664072 -0.620189
v 0.201890 0.677420 0.635282
v 0.142096 0.630390 -0.619973
v 0.158021 0.643738 0.635499
v 0.092492 0.605911 -0.620092
v 0.108417 0.619258 0.635380
v 0.039059 0.591573 -0.620541
v 0.054984 0.604921 0.634931
v -0.016151 0.587929 -0.621304
v -0.000225 0.601277 0.634168
v -0.071014 0.595119 -0.622350
v -0.055089 0.608467 0.633121
v -0.123423 0.612867 -0.623641
v -0.107498 0.626214 0.631831
v -0.171364 0.640489 -0.625126
v -0.155439 0.653837 0.630346
v -0.212994 0.676926 -0.626747
v -0.197069 0.690273 0.628724
v -0.246714 0.720776 -0.628444
v -0.230789 0.734124 0.627027
v -0.271228 0.770355 -0.630150
v -0.255302 0.783702 0.625321
v -0.285593 0.823756 -0.631801
v -0.269668 0.837104 0.623671
v -0.289258 0.878929 -0.633332
v -0.273333 0.892276 0.622140
v -0.282081 0.933752 -0.634685
v -0.266156 0.947100 0.620787
v -0.264340 0.986120 -0.635807
v -0.248414 0.999467 0.619664
v -0.236714 1.034018 -0.636656
v -0.220789 1.047366 0.618815
v -0.200267 1.075608 -0.637200
v -0.184342 1.088955 0.618272
v -0.156398 1.109290 -0.637416
v -0.140473 1.122637 0.618055
v -0.106794 1.133770 -0.637297
v -0.090869 1.147117 0.618174
v -0.053361 1.148107 -0.636848
v -0.037435 1.161454 0.618623
v 0.001849 1.151751 -0.636085
v 0.017774 1.165098 0.619386
v 0.087833 1.150199 -0.634704
v 0.068429 1.167387 -0.007676
v 0.103758 1.163547 0.620767
v 0.123920 1.148597 -0.006309
v 0.140747 1.126276 -0.633241
v 0.156672 1.139623 0.622231
v 0.174680 1.119350 -0.004737
v 0.187977 1.092498 -0.631603
v 0.203902 1.105845 0.623869
v 0.218758 1.080771 -0.003020
v 0.227709 1.050163 -0.629853
v 0.243634 1.063511 0.625618
v 0.254460 1.034343 -0.001224
v 0.258415 1.000899 -0.628059
v 0.274340 1.014246 0.627413
v 0.280415 0.981849 0.000583
v 0.278916 0.946598 -0.626289
v 0.294841 0.959945 0.629183
v 0.295625 0.925307 0.002330
v 0.288423 0.889347 -0.624611
v 0.304348 0.902695 0.630860
v 0.299506 0.866891 0.003951
v 0.286571 0.831347 -0.623091
v 0.302496 0.844694 0.632381
v 0.291907 0.808844 0.005384
v 0.273432 0.774826 -0.621785
v 0.289357 0.788173 0.633686
v 0.273122 0.753397 0.006572
v 0.249510 0.721956 -0.620746
v 0.265436 0.735304 0.634726
v 0.243873 0.702682 0.007471
v 0.215725 0.674770 -0.620011
v 0.231650 0.688117 0.635460
v 0.205282 0.658647 0.008047
v 0.173375 0.635080 -0.619611
v 0.189300 0.648427 0.635861
v 0.158834 0.622985 0.008276
v 0.124087 0.604411 -0.619559
v 0.140013 0.617759 0.635912
v 0.106313 0.597065 0.008150
v 0.069756 0.583943 -0.619859
v 0.085681 0.597290 0.635613
v 0.049738 0.581885 0.007674
v 0.012470 0.574462 -0.620498
v 0.028395 0.587809 0.634974
v -0.008717 0.578027 0.006867
v -0.045571 0.576331 -0.621452
v -0.029646 0.589679 0.634019
v -0.066806 0.585640 0.005758
v -0.102135 0.589481 -0.622684
v -0.086210 0.602828 0.632787
v -0.122297 0.604431 0.004392
v -0.155049 0.613404 -0.624148
v -0.139124 0.626752 0.631324
v -0.173057 0.633678 0.002820
v -0.202280 0.647182 -0.625786
v -0.186354 0.660530 0.629685
v -0.217135 0.672257 0.001103
v -0.242011 0.689517 -0.627536
v -0.226086 0.702864 0.627936
v -0.252838 0.718685 -0.000694
v -0.272717 0.738781 -0.629330
v -0.256792 0.752129 0.626141
v -0.278792 0.771179 -0.002500
v -0.293218 0.793082 -0.631100
v -0.277293 0.806430 0.624371
v -0.294002 0.827720 -0.004248
v -0.302725 0.850333 -0.632778
v -0.286800 0.863680 0.622694
v -0.297883 0.886137 -0.005869
v -0.300874 0.908333 -0.634298
v -0.284948 0.921681 0.621173
v -0.290284 0.944184 -0.007301
v -0.287734 0.964854 -0.635603
v -0.271809 0.978202 0.619868
v -0.271499 0.999630 -0.008490
v -0.263813 1.017724 -0.636643
v -0.247887 1.031071 0.618828
v -0.242250 1.050346 -0.009389
v -0.230027 1.064911 -0.637377
v -0.214102 1.078258 0.618094
v -0.203659 1.094380 -0.009964
v -0.187677 1.104601 -0.637778
v -0.171752 1.117948 0.617694
v -0.157211 1.130043 -0.010193
v -0.138389 1.135269 -0.637829
v -0.122464 1.148617 0.617642
v -0.104690 1.155962 -0.010067
v -0.084058 1.155737 -0.637530
v -0.068133 1.169085 0.617942
v -0.048115 1.171142 -0.009592
v -0.026772 1.165218 -0.636891
v -0.010846 1.178566 0.618581
v 0.010340 1.175000 -0.008784
v 0.031269 1.163348 -0.635937
v 0.047194 1.176696 0.619535
v 0.217831 1.505828 -0.954142
v 0.156660 1.555200 0.929527
v 0.220776 1.536545 0.929729
v 0.283034 1.500167 -0.011964
v 0.339518 1.450773 -0.953427
v 0.342269 1.481579 0.930443
v 0.399298 1.433129 -0.011037
v 0.448126 1.373040 -0.952307
v 0.450703 1.403970 0.931562
v 0.500249 1.344701 -0.009723
v 0.539481 1.275615 -0.950825
v 0.541911 1.306702 0.933041
v 0.582007 1.238280 -0.008073
v 0.610071 1.162243 -0.949037
v 0.612388 1.193511 0.934826
v 0.641430 1.117957 -0.006149
v 0.657185 1.037281 -0.947013
v 0.659426 1.068749 0.936846
v 0.676235 0.988356 -0.004025
v 0.679011 0.905530 -0.944831
v 0.681218 0.937209 0.939025
v 0.685083 0.854456 -0.001784
v 0.674711 0.772054 -0.942574
v 0.676925 0.803947 0.941279
v 0.667635 0.721404 0.000489
v 0.644450 0.641983 -0.940329
v 0.646712 0.674084 0.943520
v 0.624561 0.594313 0.002707
v 0.589392 0.520314 -0.938182
v 0.591742 0.552610 0.945664
v 0.557517 0.478066 0.004783
v 0.511651 0.411724 -0.936216
v 0.514125 0.444193 0.947627
v 0.469079 0.377132 0.006639
v 0.414215 0.320385 -0.934506
v 0.416846 0.353001 0.949334
v 0.362646 0.295389 0.008203
v 0.300829 0.249808 -0.933118
v 0.303642 0.282537 0.950720
v 0.242308 0.235978 0.009415
v 0.175851 0.202704 -0.932105
v 0.178863 0.235509 0.951731
v 0.112689 0.201182 0.010228
v 0.044082 0.180885 -0.931507
v 0.047306 0.213724 0.952328
v -0.021229 0.192339 0.010611
v -0.089413 0.185188 -0.931346
v -0.085976 0.218021 0.952489
v -0.154301 0.209789 0.010550
v -0.219503 0.215449 -0.931629
v -0.215858 0.248233 0.952207
v -0.281411 0.252860 0.010046
v -0.341191 0.270504 -0.932344
v -0.337351 0.303199 0.951493
v -0.397676 0.319898 0.009120
v -0.449799 0.348237 -0.933464
v -0.445785 0.380808 0.950374
v -0.498627 0.408327 0.007806
v -0.541154 0.445661 -0.934946
v -0.536993 0.478077 0.948895
v -0.580385 0.514747 0.006155
v -0.611744 0.559033 -0.936733
v -0.607470 0.591267 0.947110
v -0.639808 0.635070 0.004231
v -0.658858 0.683996 -0.938757
v -0.654509 0.716030 0.945090
v -0.674612 0.764672 0.002108
v -0.680684 0.815747 -0.940939
v -0.676300 0.847569 0.942911
v -0.683460 0.898572 -0.000134
v -0.676384 0.949222 -0.943197
v -0.672007 0.980832 0.940657
v -0.666012 1.031624 -0.002407
v -0.646123 1.079294 -0.945442
v -0.641794 1.110695 0.938416
v -0.622938 1.158715 -0.004624
v -0.591064 1.200963 -0.947589
v -0.586823 1.232169 0.936272
v -0.555894 1.274961 -0.006700
v -0.513323 1.309553 -0.949555
v -0.509207 1.340585 0.934309
v -0.467456 1.375896 -0.008556
v -0.415887 1.400892 -0.951265
v -0.411927 1.431778 0.932602
v -0.361023 1.457639 -0.010120
v -0.302501 1.471469 -0.952653
v -0.298723 1.502242 0.931216
v -0.240684 1.517050 -0.011332
v -0.177522 1.518572 -0.953665
v -0.173944 1.549270 0.930205
v -0.111065 1.551845 -0.012145
v -0.045754 1.540391 -0.954263
v -0.042387 1.571054 0.929608
v 0.022853 1.560688 -0.012528
v 0.087740 1.536088 -0.954424
v 0.090894 1.566757 0.929447
v 0.155923 1.543239 -0.012467
v 0.283024 1.512381 0.930028
v 0.398606 1.445737 0.930949
v 0.498965 1.357828 0.932255
v 0.580243 1.252032 0.933896
v 0.639317 1.132415 0.935808
v 0.673917 1.003574 0.937919
v 0.682713 0.870461 0.940148
v 0.665367 0.738190 0.942407
v 0.622547 0.611845 0.944612
v 0.555896 0.496281 0.946676
v 0.467978 0.395939 0.948521
v 0.362169 0.314676 0.950076
v 0.242538 0.255614 0.951280
v 0.113680 0.221023 0.952089
v -0.019452 0.212231 0.952470
v -0.151742 0.229579 0.952409
v -0.278106 0.272397 0.951908
v -0.393688 0.339042 0.950987
v -0.494047 0.426951 0.949681
v -0.575325 0.532747 0.948040
v -0.634399 0.652363 0.946127
v -0.668999 0.781204 0.944016
v -0.677795 0.914318 0.941788
v -0.660449 1.046589 0.939529
v -0.617628 1.172934 0.937324
v -0.550978 1.288498 0.935260
v -0.463059 1.388839 0.933415
v -0.357251 1.470103 0.931860
v -0.237619 1.529165 0.930655
v -0.108761 1.563756 0.929847
v 0.024371 1.572547 0.929466
v 0.091036 1.567839 0.929429
v -0.042458 1.572142 0.929590
v -0.174227 1.550323 0.930188
v -0.299206 1.503220 0.931201
v -0.412592 1.432643 0.932588
v -0.510027 1.341304 0.934298
v -0.587768 1.232714 0.936265
v -0.642827 1.111045 0.938411
v -0.673088 0.980973 0.940657
v -0.677388 0.847497 0.942914
v -0.655562 0.715747 0.945096
v -0.608449 0.590784 0.947120
v -0.537858 0.477412 0.948907
v -0.446504 0.379988 0.950390
v -0.337896 0.302254 0.951510
v -0.216208 0.247200 0.952225
v -0.086117 0.216939 0.952507
v 0.047377 0.212636 0.952346
v 0.179146 0.234455 0.951748
v 0.304125 0.281559 0.950735
v 0.417510 0.352136 0.949348
v 0.514946 0.443475 0.947638
v 0.592687 0.552065 0.945671
v 0.647746 0.673734 0.943525
v 0.678006 0.803805 0.941279
v 0.682306 0.937281 0.939022
v 0.660480 1.069032 0.936840
v 0.613366 1.193994 0.934816
v 0.542776 1.307366 0.933029
v 0.451422 1.404791 0.931547
v 0.342814 1.482524 0.930426
v 0.221126 1.537578 0.929711
v 0.086443 1.153646 -0.948686
v 0.140662 1.129132 -0.947230
v 0.189058 1.094519 -0.945595
v 0.229769 1.051140 -0.943844
v 0.261232 1.000659 -0.942045
v 0.282238 0.945017 -0.940265
v 0.291979 0.886353 -0.938574
v 0.290081 0.826920 -0.937036
v 0.276617 0.769004 -0.935711
v 0.252104 0.714828 -0.934650
v 0.217485 0.666477 -0.933893
v 0.174090 0.625806 -0.933469
v 0.123586 0.594381 -0.933396
v 0.067914 0.573407 -0.933674
v 0.009214 0.563692 -0.934295
v -0.050259 0.565608 -0.935234
v -0.108218 0.579082 -0.936454
v -0.162438 0.603596 -0.937910
v -0.210833 0.638208 -0.939544
v -0.251544 0.681588 -0.941295
v -0.283008 0.732069 -0.943095
v -0.304013 0.787711 -0.944875
v -0.313754 0.846375 -0.946566
v -0.311856 0.905807 -0.948104
v -0.298392 0.963724 -0.949429
v -0.273880 1.017899 -0.950490
v -0.239260 1.066251 -0.951247
v -0.195865 1.106921 -0.951670
v -0.145361 1.138347 -0.951744
v -0.089689 1.159320 -0.951465
v -0.030989 1.169036 -0.950845
v 0.028484 1.167120 -0.949906
v 0.486137 0.847644 -0.940744
v 0.479767 0.943903 -0.942670
v -0.117345 0.384196 -0.933625
v -0.021664 0.371652 -0.933052
v -0.454363 1.066374 -0.948263
v -0.485325 0.975009 -0.946561
v 0.353208 1.200078 -0.948167
v 0.280617 1.263649 -0.949671
v 0.254339 0.445734 -0.933581
v 0.330860 0.504498 -0.934483
v -0.466458 0.689929 -0.940857
v -0.423724 0.603429 -0.939001
v -0.086347 1.348993 -0.952604
v -0.179542 1.323979 -0.952426
v 0.473601 0.751993 -0.938894
v -0.208742 0.415160 -0.934547
v -0.406165 1.149943 -0.949752
v 0.412000 1.123573 -0.946454
v 0.167819 0.403023 -0.933029
v -0.491491 0.783099 -0.942786
v 0.009941 1.355350 -0.952403
v 0.442639 0.660628 -0.937192
v -0.292341 0.463353 -0.935785
v -0.342584 1.222504 -0.950972
v 0.454733 1.037073 -0.944598
v 0.074624 0.378009 -0.932851
v -0.497861 0.879358 -0.944711
v 0.197017 1.311842 -0.950908
v 0.105621 1.342806 -0.951830
v 0.394441 0.577060 -0.935703
v -0.364932 0.526924 -0.937288
v -0.266063 1.281268 -0.951875
v 0.051886 1.187453 0.933316
v -0.007593 1.189369 0.932377
v -0.066299 1.179652 0.931756
v -0.121977 1.158677 0.931478
v -0.172487 1.127248 0.931551
v -0.215887 1.086573 0.931975
v -0.250510 1.038216 0.932732
v -0.275025 0.984035 0.933793
v -0.288491 0.926112 0.935119
v -0.290389 0.866673 0.936656
v -0.280647 0.808002 0.938347
v -0.259639 0.752354 0.940127
v -0.228172 0.701868 0.941927
v -0.187457 0.658483 0.943679
v -0.139056 0.623867 0.945313
v -0.084831 0.599350 0.946769
v -0.026865 0.585875 0.947990
v 0.032614 0.583959 0.948928
v 0.091321 0.593675 0.949549
v 0.146998 0.614651 0.949828
v 0.197508 0.646080 0.949754
v 0.240908 0.686755 0.949331
v 0.275531 0.735112 0.948574
v 0.300047 0.789293 0.947512
v 0.313512 0.847216 0.946187
v 0.315410 0.906655 0.944649
v 0.305668 0.965326 0.942958
v 0.284660 1.020973 0.941178
v 0.253193 1.071460 0.939378
v 0.212478 1.114845 0.937627
v 0.164077 1.149460 0.935992
v 0.109852 1.173977 0.934536
v -0.195402 0.441171 0.948991
v -0.279004 0.489365 0.947753
v -0.073003 1.375035 0.930933
v 0.023288 1.381392 0.931134
v 0.366567 1.226115 0.935371
v 0.425361 1.149607 0.937084
v -0.104002 0.410206 0.949914
v -0.166201 1.350020 0.931112
v 0.293974 1.289688 0.933867
v -0.008318 0.397661 0.950487
v -0.252725 1.307308 0.931663
v 0.210371 1.337882 0.932630
v 0.087973 0.404018 0.950688
v -0.329248 1.248541 0.932565
v 0.118972 1.368847 0.931707
v 0.181171 0.429034 0.950509
v -0.392832 1.175978 0.933785
v 0.267695 0.471745 0.949958
v -0.441031 1.092406 0.935275
v 0.344218 0.530512 0.949055
v -0.471994 1.001038 0.936977
v 0.407802 0.603075 0.947836
v -0.484531 0.905385 0.938826
v 0.456001 0.686647 0.946346
v -0.478160 0.809122 0.940752
v 0.486964 0.778015 0.944644
v -0.453126 0.715949 0.942680
v 0.499501 0.873669 0.942794
v -0.410391 0.629446 0.944536
v 0.493130 0.969932 0.940868
v -0.351597 0.552938 0.946250
v 0.468096 1.063105 0.938940
v 0.083352 1.136972 -0.634421
v 0.064081 1.148684 -0.007244
v 0.099277 1.150320 0.621051
v 0.116004 1.131101 -0.005965
v 0.133769 1.114177 -0.633026
v 0.149694 1.127525 0.622445
v 0.163500 1.103735 -0.004494
v 0.178771 1.081993 -0.631466
v 0.194697 1.095340 0.624006
v 0.204743 1.067637 -0.002888
v 0.216628 1.041656 -0.629798
v 0.232554 1.055003 0.625673
v 0.238150 1.024194 -0.001207
v 0.245886 0.994716 -0.628089
v 0.261811 1.008063 0.627383
v 0.262436 0.975076 0.000484
v 0.265419 0.942977 -0.626402
v 0.281345 0.956324 0.629069
v 0.276668 0.922170 0.002119
v 0.274478 0.888427 -0.624804
v 0.290403 0.901774 0.630668
v 0.280299 0.867509 0.003636
v 0.272714 0.833163 -0.623355
v 0.288639 0.846511 0.632116
v 0.273189 0.813195 0.004976
v 0.260195 0.779309 -0.622111
v 0.276120 0.792656 0.633360
v 0.255612 0.761314 0.006088
v 0.237401 0.728933 -0.621121
v 0.253327 0.742281 0.634351
v 0.228243 0.713860 0.006929
v 0.205210 0.683973 -0.620421
v 0.221135 0.697320 0.635050
v 0.192135 0.672657 0.007468
v 0.164858 0.646155 -0.620039
v 0.180783 0.659503 0.635432
v 0.148673 0.639287 0.007682
v 0.117896 0.616934 -0.619990
v 0.133821 0.630281 0.635481
v 0.099529 0.615035 0.007564
v 0.066128 0.597431 -0.620276
v 0.082053 0.610779 0.635196
v 0.046592 0.600830 0.007119
v 0.011544 0.588397 -0.620885
v 0.027469 0.601745 0.634587
v -0.008104 0.597220 0.006364
v -0.043758 0.590179 -0.621794
v -0.027833 0.603526 0.633678
v -0.062458 0.604344 0.005327
v -0.097654 0.602708 -0.622968
v -0.081729 0.616055 0.632504
v -0.114381 0.621926 0.004048
v -0.148072 0.625503 -0.624362
v -0.132146 0.638850 0.631109
v -0.161877 0.649292 0.002577
v -0.193074 0.657687 -0.625923
v -0.177148 0.671034 0.629548
v -0.203121 0.685391 0.000970
v -0.230931 0.698024 -0.627590
v -0.215006 0.711372 0.627881
v -0.236527 0.728834 -0.000711
v -0.260188 0.744965 -0.629300
v -0.244263 0.758312 0.626171
v -0.260813 0.777952 -0.002401
v -0.279722 0.796704 -0.630987
v -0.263796 0.810051 0.624485
v -0.275045 0.830858 -0.004036
v -0.288780 0.851253 -0.632585
v -0.272855 0.864601 0.622887
v -0.278676 0.885518 -0.005553
v -0.287016 0.906517 -0.634034
v -0.271091 0.919865 0.621438
v -0.271566 0.939833 -0.006893
v -0.274497 0.960372 -0.635277
v -0.258572 0.973719 0.620194
v -0.253989 0.991714 -0.008005
v -0.251704 1.010747 -0.636268
v -0.235778 1.024094 0.619203
v -0.226620 1.039168 -0.008847
v -0.219512 1.055707 -0.636968
v -0.203587 1.069055 0.618504
v -0.190511 1.080371 -0.009385
v -0.179160 1.093525 -0.637349
v -0.163235 1.106872 0.618122
v -0.147050 1.113740 -0.009599
v -0.132198 1.122746 -0.637398
v -0.116272 1.136094 0.618073
v -0.097906 1.137993 -0.009482
v -0.080430 1.142249 -0.637113
v -0.064505 1.155596 0.618358
v -0.044969 1.152197 -0.009036
v -0.025846 1.151283 -0.636504
v -0.009921 1.164630 0.618967
v 0.009728 1.155807 -0.008281
v 0.029456 1.149501 -0.635595
v 0.045381 1.162848 0.619877
v 0.200802 1.065027 -0.866090
v 0.235357 1.020092 -0.864352
v -0.035593 1.170846 0.853823
v -0.090350 1.156154 0.853362
v 0.142805 0.621960 -0.855158
v 0.091973 0.596874 -0.855279
v 0.257254 1.038445 0.861922
v 0.222699 1.083380 0.860183
v -0.280751 0.765389 -0.865587
v -0.295472 0.820113 -0.867279
v 0.113870 0.615226 0.870994
v 0.164702 0.640312 0.871115
v -0.057491 1.152493 -0.872451
v -0.000915 1.156227 -0.871669
v -0.273575 0.838466 0.858995
v -0.258854 0.783742 0.860686
v 0.260477 0.969286 -0.862603
v 0.020983 1.174580 0.854604
v 0.037217 0.582181 -0.855740
v 0.282374 0.987639 0.863670
v -0.299228 0.876651 -0.868847
v 0.059114 0.600534 0.870533
v 0.055307 1.148859 -0.870596
v -0.277331 0.895004 0.857426
v 0.275198 0.914562 -0.860912
v 0.077204 1.167212 0.855677
v -0.019359 0.578447 -0.856521
v 0.297095 0.932915 0.865361
v -0.291874 0.932832 -0.870234
v 0.002538 0.596800 0.869752
v -0.269977 0.951185 0.856040
v 0.278954 0.858024 -0.859343
v -0.075581 0.585815 -0.857594
v 0.300851 0.876376 0.866930
v -0.273693 0.986496 -0.871384
v -0.053684 0.604168 0.868679
v -0.251796 1.004848 0.854889
v 0.271600 0.801843 -0.857957
v -0.129288 0.604002 -0.858917
v 0.293497 0.820196 0.868316
v -0.245384 1.035580 -0.872254
v -0.107391 0.622355 0.867357
v -0.223486 1.053933 0.854019
v 0.253419 0.748179 -0.856807
v -0.178415 0.632309 -0.860438
v 0.275316 0.766532 0.869467
v 0.109013 1.130673 -0.869274
v -0.208034 1.078199 -0.872811
v -0.156518 0.650661 0.865835
v -0.186137 1.096552 0.853462
v 0.225109 0.699095 -0.855936
v 0.130911 1.149025 0.856999
v -0.221076 0.669647 -0.862100
v 0.247007 0.717447 0.870337
v -0.163079 1.112715 -0.873033
v -0.199179 0.688000 0.864173
v 0.158141 1.102366 -0.867753
v -0.141182 1.131068 0.853240
v 0.187760 0.656475 -0.855380
v 0.180038 1.120719 0.858521
v -0.255631 0.714583 -0.863839
v 0.209657 0.674828 0.870894
v -0.112247 1.137801 -0.872911
v -0.233734 0.732936 0.862434
v 0.096636 1.159353 -0.007022
v 0.150018 1.135218 -0.005545
v 0.197666 1.101141 -0.003893
v 0.237749 1.058432 -0.002128
v 0.268727 1.008732 -0.000317
v 0.289409 0.953951 0.001468
v 0.299000 0.896194 0.003161
v 0.297132 0.837680 0.004695
v 0.283877 0.780659 0.006011
v 0.259743 0.727322 0.007060
v 0.225659 0.679718 0.007801
v 0.182935 0.639677 0.008205
v 0.133211 0.608737 0.008257
v 0.078399 0.588088 0.007955
v 0.020606 0.578522 0.007310
v -0.037948 0.580409 0.006348
v -0.095013 0.593674 0.005104
v -0.148395 0.617809 0.003628
v -0.196043 0.651886 0.001975
v -0.236126 0.694596 0.000210
v -0.267104 0.744296 -0.001600
v -0.287786 0.799077 -0.003386
v -0.297377 0.856834 -0.005078
v -0.295509 0.915347 -0.006612
v -0.282254 0.972368 -0.007929
v -0.258120 1.025706 -0.008978
v -0.224036 1.073310 -0.009719
v -0.181311 1.113351 -0.010123
v -0.131588 1.144291 -0.010175
v -0.076776 1.164940 -0.009872
v -0.018983 1.174505 -0.009228
v 0.039571 1.172618 -0.008265
v 0.220834 1.536718 0.929726
v 0.342359 1.481736 0.930440
v 0.450822 1.404107 0.931559
v 0.542055 1.306812 0.933039
v 0.612551 1.193592 0.934824
v 0.659602 1.068796 0.936845
v 0.681399 0.937221 0.939025
v 0.677105 0.803924 0.941279
v 0.646885 0.674026 0.943521
v 0.591899 0.552519 0.945665
v 0.514262 0.444074 0.947629
v 0.416957 0.352857 0.949336
v 0.303722 0.282374 0.950722
v 0.178910 0.235333 0.951733
v 0.047318 0.213543 0.952331
v -0.085999 0.217841 0.952492
v -0.215916 0.248061 0.952210
v -0.337442 0.303042 0.951496
v -0.445905 0.380671 0.950377
v -0.537137 0.477966 0.948897
v -0.607634 0.591187 0.947112
v -0.654684 0.715982 0.945091
v -0.676481 0.847557 0.942911
v -0.672187 0.980855 0.940657
v -0.641966 1.110753 0.938415
v -0.586981 1.232260 0.936271
v -0.509343 1.340705 0.934307
v -0.412038 1.431922 0.932600
v -0.298803 1.502405 0.931213
v -0.173991 1.549445 0.930202
v -0.042399 1.571235 0.929605
v 0.090918 1.566938 0.929444
v -0.238294 0.463376 0.948406
v 0.089388 1.551963 -0.012498
v -0.044106 1.556267 -0.012337
v -0.175875 1.534448 -0.011739
v -0.300853 1.487345 -0.010726
v -0.414239 1.416767 -0.009338
v -0.511675 1.325429 -0.007628
v -0.589416 1.216838 -0.005662
v -0.644475 1.095170 -0.003515
v -0.674736 0.965098 -0.001270
v -0.679036 0.831622 0.000987
v -0.657210 0.699871 0.003169
v -0.610096 0.574909 0.005193
v -0.539506 0.461537 0.006981
v -0.448151 0.364112 0.008463
v -0.339543 0.286379 0.009583
v -0.217856 0.231324 0.010298
v -0.087765 0.201064 0.010580
v 0.045730 0.196761 0.010419
v 0.177498 0.218580 0.009821
v 0.302477 0.265683 0.008809
v 0.415863 0.336260 0.007421
v 0.513298 0.427599 0.005711
v 0.591039 0.536190 0.003745
v 0.646098 0.657858 0.001598
v 0.676359 0.787930 -0.000647
v 0.680659 0.921406 -0.002905
v 0.658832 1.053156 -0.005087
v 0.611719 1.178119 -0.007111
v 0.541128 1.291491 -0.008898
v 0.449774 1.388915 -0.010380
v 0.341166 1.466648 -0.011500
v 0.219478 1.521703 -0.012215
v 0.485132 0.895918 -0.941701
v -0.069788 0.375759 -0.933296
v -0.471913 1.021392 -0.947434
v 0.318352 1.233506 -0.948946
v 0.293931 0.473384 -0.933992
v -0.447050 0.645712 -0.939918
v -0.133511 1.338595 -0.952559
v 0.482035 0.799535 -0.939805
v -0.163744 0.397610 -0.934047
v -0.432157 1.109249 -0.949037
v 0.384336 1.163156 -0.947330
v 0.212047 0.422420 -0.933262
v -0.481084 0.735947 -0.941818
v -0.038347 1.354351 -0.952548
v 0.460189 0.705610 -0.938021
v -0.251633 0.437365 -0.935132
v -0.376018 1.187662 -0.950397
v 0.435326 1.081290 -0.945538
v 0.121788 0.388407 -0.932896
v -0.496856 0.831085 -0.943754
v 0.152020 1.329392 -0.951408
v 0.058065 1.351243 -0.952159
v 0.420433 0.617753 -0.936418
v -0.330076 0.493496 -0.936509
v -0.305654 1.253618 -0.951463
v 0.469360 0.991055 -0.943637
v 0.026624 0.372651 -0.932907
v -0.493759 0.927468 -0.945650
v 0.239909 1.289637 -0.950323
v 0.364294 0.539340 -0.935058
v -0.396061 0.563846 -0.938125
v -0.223770 1.304582 -0.952193
v -0.025002 1.380393 0.930989
v 0.397696 1.189191 0.936208
v -0.150403 0.423619 0.949491
v -0.120169 1.364637 0.930978
v 0.331710 1.259544 0.934592
v -0.056444 0.401768 0.950242
v -0.210430 1.330622 0.931344
v 0.253264 1.315677 0.933215
v 0.039972 0.398660 0.950631
v -0.292318 1.279657 0.932074
v 0.165372 1.355433 0.932130
v 0.135139 0.414416 0.950643
v -0.362684 1.213699 0.933140
v 0.225401 0.448431 0.950276
v -0.418824 1.135283 0.934501
v 0.307288 0.499396 0.949546
v -0.458582 1.047423 0.936104
v 0.377654 0.565354 0.948480
v -0.480429 0.953495 0.937888
v 0.433794 0.643770 0.947120
v -0.483526 0.857109 0.939784
v 0.473552 0.731630 0.945517
v -0.467753 0.761969 0.941720
v 0.495399 0.825558 0.943733
v -0.433718 0.671730 0.943620
v 0.498495 0.921944 0.941837
v -0.382727 0.589862 0.945413
v 0.482723 1.017084 0.939901
v -0.316741 0.519509 0.947029
v 0.071414 1.377285 0.931378
v 0.448687 1.107323 0.938000
v 0.090474 1.141166 -0.006632
v 0.140423 1.118583 -0.005251
v 0.185008 1.086697 -0.003704
v 0.222513 1.046734 -0.002052
v 0.251499 1.000230 -0.000359
v 0.270851 0.948971 0.001312
v 0.279826 0.894928 0.002896
v 0.278078 0.840177 0.004331
v 0.265675 0.786823 0.005563
v 0.243094 0.736915 0.006545
v 0.211201 0.692372 0.007238
v 0.171224 0.654906 0.007616
v 0.124697 0.625955 0.007665
v 0.073410 0.606634 0.007382
v 0.019333 0.597684 0.006779
v -0.035456 0.599449 0.005878
v -0.088851 0.611862 0.004715
v -0.138801 0.634445 0.003333
v -0.183385 0.666330 0.001787
v -0.220891 0.706293 0.000135
v -0.249877 0.752798 -0.001559
v -0.269229 0.804056 -0.003230
v -0.278203 0.858100 -0.004813
v -0.276455 0.912850 -0.006249
v -0.264052 0.966205 -0.007481
v -0.241471 1.016113 -0.008462
v -0.209578 1.060655 -0.009155
v -0.169601 1.098122 -0.009533
v -0.123074 1.127072 -0.009582
v -0.071787 1.146394 -0.009299
v -0.017710 1.155344 -0.008696
v 0.037079 1.153578 -0.007795
v 0.219183 1.043407 -0.865227
v -0.063333 1.164843 0.853551
v 0.118006 0.608170 -0.855176
v 0.241080 1.061760 0.861047
v -0.289456 0.792390 -0.866444
v 0.139903 0.626522 0.871098
v -0.029295 1.155748 -0.872098
v -0.267559 0.810743 0.859829
v 0.249164 0.995305 -0.863475
v -0.007398 1.174101 0.854175
v 0.064956 0.588184 -0.855468
v 0.271062 1.013657 0.862799
v -0.298739 0.848290 -0.868082
v 0.086853 0.606537 0.870805
v 0.027377 1.153922 -0.871167
v -0.276841 0.866643 0.858191
v 0.269181 0.942285 -0.861746
v 0.049274 1.172275 0.855107
v 0.009021 0.578927 -0.856092
v 0.291079 0.960637 0.864527
v -0.296931 0.904923 -0.869567
v 0.030918 0.597279 0.870181
v -0.275034 0.923275 0.856706
v 0.278464 0.886384 -0.860108
v -0.047651 0.580752 -0.857024
v 0.300362 0.904737 0.866165
v -0.284102 0.960110 -0.870841
v -0.025754 0.599105 0.869250
v -0.262204 0.978463 0.855432
v 0.276657 0.829752 -0.858624
v -0.102881 0.593592 -0.858227
v 0.298554 0.848105 0.867650
v -0.260744 1.011733 -0.871857
v -0.080983 0.611944 0.868046
v -0.238847 1.030086 0.854417
v 0.263827 0.774565 -0.857349
v -0.154546 0.616951 -0.859656
v 0.285725 0.792917 0.868924
v 0.082606 1.141083 -0.869963
v -0.227756 1.057806 -0.872573
v -0.132649 0.635303 0.866617
v -0.205859 1.076159 0.853700
v 0.240470 0.722942 -0.856334
v 0.104503 1.159436 0.856310
v -0.200663 0.649932 -0.861255
v 0.262367 0.741295 0.869939
v -0.186405 1.096560 -0.872965
v -0.178765 0.668285 0.865018
v 0.134272 1.117724 -0.868535
v -0.164507 1.114913 0.853309
v 0.207482 0.676869 -0.855617
v 0.156169 1.136077 0.857739
v -0.239457 0.691268 -0.862964
v 0.229379 0.695221 0.870656
v -0.138279 1.126505 -0.873015
v -0.217560 0.709621 0.863309
v 0.180388 1.084743 -0.866935
v -0.116382 1.144858 0.853258
v 0.166131 0.638115 -0.855226
v 0.202285 1.103096 0.859338
v -0.269439 0.739370 -0.864716
v 0.188028 0.656467 0.871047
v -0.085230 1.146490 -0.872722
v -0.247542 0.757723 0.861557
vn -0.2743 -0.9615 0.0179
vn -0.3671 -0.9300 0.0187
vn -0.3670 -0.9302 0.0104
vn -0.2741 -0.9616 0.0095
vn -0.4566 -0.8895 0.0194
vn -0.5415 -0.8405 0.0200
vn -0.5413 -0.8407 0.0116
vn -0.4564 -0.8897 0.0111
vn -0.6213 -0.7833 0.0204
vn -0.6950 -0.7187 0.0206
vn -0.6949 -0.7190 0.0123
vn -0.6212 -0.7836 0.0120
vn -0.7621 -0.6471 0.0207
vn -0.8218 -0.5693 0.0206
vn -0.8218 -0.5696 0.0123
vn -0.7621 -0.6474 0.0124
vn -0.8737 -0.4860 0.0204
vn -0.9171 -0.3981 0.0200
vn -0.9171 -0.3984 0.0117
vn -0.8737 -0.4863 0.0121
vn -0.9518 -0.3062 0.0195
vn -0.9772 -0.2115 0.0188
vn -0.9773 -0.2118 0.0105
vn -0.9518 -0.3065 0.0112
vn -0.9932 -0.1146 0.0180
vn -0.9997 -0.0168 0.0170
vn -0.9998 -0.0170 0.0087
vn -0.9933 -0.1149 0.0097
vn -0.9966 0.0814 0.0159
vn -0.9838 0.1786 0.0147
vn -0.9839 0.1784 0.0064
vn -0.9967 0.0812 0.0076
vn -0.9616 0.2743 0.0134
vn -0.9301 0.3671 0.0121
vn -0.9302 0.3670 0.0037
vn -0.9617 0.2741 0.0051
vn -0.8896 0.4566 0.0106
vn -0.8406 0.5416 0.0091
vn -0.8407 0.5415 0.0007
vn -0.8897 0.4565 0.0023
vn -0.7834 0.6214 0.0075
vn -0.7188 0.6952 0.0059
vn -0.7188 0.6952 -0.0024
vn -0.7835 0.6214 -0.0008
vn -0.6471 0.7624 0.0043
vn -0.5694 0.8221 0.0027
vn -0.5694 0.8221 -0.0057
vn -0.6472 0.7623 -0.0041
vn -0.4860 0.8740 0.0010
vn -0.3981 0.9174 -0.0005
vn -0.3980 0.9173 -0.0089
vn -0.4860 0.8739 -0.0073
vn -0.3062 0.9520 -0.0021
vn -0.2115 0.9774 -0.0035
vn -0.2114 0.9773 -0.0119
vn -0.3061 0.9519 -0.0104
vn -0.1146 0.9934 -0.0049
vn -0.0168 0.9998 -0.0062
vn -0.0167 0.9998 -0.0146
vn -0.1145 0.9933 -0.0133
vn 0.0813 0.9967 -0.0075
vn 0.1785 0.9839 -0.0086
vn 0.1787 0.9838 -0.0169
vn 0.0815 0.9966 -0.0158
vn 0.2741 0.9616 -0.0095
vn 0.3670 0.9302 -0.0104
vn 0.3671 0.9300 -0.0187
vn 0.2743 0.9615 -0.0179
vn 0.4564 0.8897 -0.0111
vn 0.5413 0.8407 -0.0116
vn 0.5415 0.8405 -0.0200
vn 0.4566 0.8895 -0.0194
vn 0.6212 0.7836 -0.0120
vn 0.6949 0.7190 -0.0123
vn 0.6950 0.7187 -0.0206
vn 0.6213 0.7833 -0.0204
vn 0.7621 0.6474 -0.0124
vn 0.8218 0.5696 -0.0123
vn 0.8218 0.5693 -0.0206
vn 0.7621 0.6471 -0.0207
vn 0.8737 0.4863 -0.0121
vn 0.9171 0.3984 -0.0117
vn 0.9171 0.3981 -0.0200
vn 0.8737 0.4860 -0.0204
vn 0.9518 0.3065 -0.0112
vn 0.9773 0.2118 -0.0105
vn 0.9772 0.2115 -0.0188
vn 0.9518 0.3062 -0.0195
vn 0.9933 0.1149 -0.0097
vn 0.9998 0.0170 -0.0087
vn 0.9997 0.0168 -0.0170
vn 0.9932 0.1146 -0.0180
vn 0.9967 -0.0812 -0.0076
vn 0.9839 -0.1784 -0.0064
vn 0.9838 -0.1786 -0.0147
vn 0.9966 -0.0814 -0.0159
vn 0.9617 -0.2741 -0.0051
vn 0.9302 -0.3670 -0.0037
vn 0.9301 -0.3672 -0.0121
vn 0.9616 -0.2743 -0.0134
vn 0.8897 -0.4565 -0.0023
vn 0.8407 -0.5415 -0.0007
vn 0.8406 -0.5416 -0.0091
vn 0.8896 -0.4566 -0.0106
vn 0.7835 -0.6214 0.0008
vn 0.7189 -0.6952 0.0024
vn 0.7188 -0.6952 -0.0059
vn 0.7834 -0.6215 -0.0075
vn 0.6472 -0.7623 0.0041
vn 0.5694 -0.8221 0.0057
vn 0.5694 -0.8221 -0.0027
vn 0.6471 -0.7624 -0.0043
vn 0.4860 -0.8740 0.0073
vn 0.3980 -0.9173 0.0089
vn 0.3981 -0.9174 0.0005
vn 0.4860 -0.8740 -0.0010
vn 0.3061 -0.9519 0.0104
vn 0.2114 -0.9773 0.0119
vn 0.2115 -0.9774 0.0035
vn 0.3062 -0.9520 0.0021
vn 0.1145 -0.9933 0.0133
vn 0.0167 -0.9998 0.0146
vn 0.0168 -0.9998 0.0062
vn 0.1146 -0.9934 0.0049
vn -0.0815 -0.9965 0.0158
vn -0.1787 -0.9838 0.0169
vn -0.1785 -0.9839 0.0086
vn -0.0813 -0.9967 0.0075
vn 0.5414 0.8405 -0.0200
vn 0.9301 -0.3671 -0.0121
vn 0.5694 -0.8221 -0.0026
vn -0.0815 -0.9966 0.0158
vn -0.7834 0.6215 0.0075
vn -0.5694 0.8221 0.0026
vn -0.4860 0.8740 -0.0073
vn 0.0815 0.9965 -0.0158
vn -0.8216 -0.5682 0.0461
vn -0.7620 -0.6460 0.0461
vn 0.7616 0.6480 0.0131
vn 0.8213 0.5703 0.0132
vn 0.3062 -0.9517 -0.0234
vn 0.2117 -0.9771 -0.0219
vn -0.2110 0.9768 -0.0374
vn -0.3058 0.9514 -0.0359
vn -0.3980 0.9170 0.0249
vn -0.4858 0.8737 0.0265
vn 0.4857 -0.8735 0.0328
vn 0.3977 -0.9169 0.0344
vn -0.7616 -0.6480 -0.0131
vn -0.8213 -0.5703 -0.0132
vn 0.8216 0.5682 -0.0461
vn 0.7620 0.6460 -0.0461
vn 0.9770 0.2125 0.0150
vn 0.9515 0.3072 0.0143
vn -0.9512 -0.3052 0.0449
vn -0.9766 -0.2106 0.0442
vn -0.4857 0.8735 -0.0328
vn -0.3977 0.9169 -0.0344
vn 0.3980 -0.9170 -0.0249
vn 0.4858 -0.8737 -0.0265
vn 0.0163 -0.9991 0.0401
vn 0.1141 -0.9927 0.0387
vn -0.1149 0.9932 0.0205
vn -0.0172 0.9997 0.0192
vn 0.9512 0.3052 -0.0449
vn 0.9766 0.2106 -0.0442
vn -0.9770 -0.2125 -0.0150
vn -0.9515 -0.3072 -0.0143
vn -0.9167 -0.3970 0.0455
vn -0.8734 -0.4849 0.0458
vn 0.8733 0.4870 0.0134
vn 0.9168 0.3991 0.0138
vn 0.1149 -0.9932 -0.0205
vn 0.0172 -0.9997 -0.0192
vn -0.0163 0.9991 -0.0401
vn -0.1141 0.9927 -0.0387
vn -0.2117 0.9771 0.0219
vn -0.3062 0.9517 0.0234
vn 0.3058 -0.9514 0.0359
vn 0.2110 -0.9768 0.0374
vn -0.8733 -0.4870 -0.0134
vn -0.9168 -0.3991 -0.0138
vn 0.9167 0.3970 -0.0455
vn 0.8734 0.4849 -0.0458
vn 0.9997 0.0177 0.0168
vn 0.9932 0.1156 0.0158
vn -0.9926 -0.1138 0.0434
vn -0.9990 -0.0161 0.0424
vn -0.1790 -0.9829 0.0424
vn -0.0819 -0.9958 0.0413
vn 0.0809 0.9966 0.0180
vn 0.1780 0.9839 0.0169
vn 0.9926 0.1138 -0.0434
vn 0.9990 0.0161 -0.0424
vn -0.9997 -0.0177 -0.0168
vn -0.9932 -0.1156 -0.0158
vn -0.0809 -0.9966 -0.0180
vn -0.1780 -0.9839 -0.0169
vn 0.1790 0.9829 -0.0424
vn 0.0819 0.9958 -0.0413
vn 0.9839 -0.1778 0.0191
vn 0.9966 -0.0805 0.0179
vn -0.9958 0.0820 0.0414
vn -0.9830 0.1791 0.0402
vn 0.9958 -0.0820 -0.0414
vn 0.9830 -0.1791 -0.0402
vn -0.9839 0.1778 -0.0191
vn -0.9966 0.0805 -0.0179
vn 0.9302 -0.3665 0.0218
vn 0.9616 -0.2735 0.0204
vn -0.9608 0.2746 0.0389
vn -0.9293 0.3674 0.0375
vn 0.9608 -0.2746 -0.0389
vn 0.9293 -0.3674 -0.0375
vn -0.9302 0.3665 -0.0218
vn -0.9616 0.2735 -0.0204
vn 0.3664 0.9303 0.0151
vn 0.2736 0.9617 0.0159
vn -0.2746 -0.9606 0.0433
vn -0.3674 -0.9290 0.0442
vn 0.8406 -0.5410 0.0247
vn 0.8897 -0.4560 0.0232
vn -0.8889 0.4567 0.0360
vn -0.8399 0.5416 0.0345
vn 0.2746 0.9606 -0.0433
vn 0.3674 0.9290 -0.0442
vn -0.3664 -0.9303 -0.0151
vn -0.2736 -0.9617 -0.0159
vn 0.8889 -0.4567 -0.0360
vn 0.8399 -0.5416 -0.0345
vn -0.8406 0.5410 -0.0247
vn -0.8897 0.4560 -0.0232
vn 0.5407 0.8411 0.0138
vn 0.4558 0.8900 0.0144
vn -0.4568 -0.8885 0.0449
vn -0.5416 -0.8394 0.0454
vn 0.7187 -0.6947 0.0279
vn 0.7834 -0.6210 0.0263
vn -0.7828 0.6214 0.0329
vn -0.7183 0.6950 0.0313
vn 0.4568 0.8885 -0.0449
vn 0.5416 0.8394 -0.0454
vn -0.5407 -0.8411 -0.0138
vn -0.4558 -0.8900 -0.0144
vn 0.7828 -0.6214 -0.0329
vn 0.7183 -0.6950 -0.0313
vn -0.7187 0.6947 -0.0279
vn -0.7834 0.6210 -0.0263
vn 0.6944 0.7195 0.0132
vn 0.6206 0.7840 0.0134
vn -0.6213 -0.7822 0.0458
vn -0.6949 -0.7176 0.0461
vn 0.5692 -0.8216 0.0312
vn 0.6470 -0.7619 0.0295
vn -0.6467 0.7621 0.0297
vn -0.5691 0.8218 0.0281
vn 0.6213 0.7822 -0.0458
vn 0.6949 0.7176 -0.0461
vn -0.6944 -0.7195 -0.0132
vn -0.6206 -0.7840 -0.0134
vn 0.6467 -0.7621 -0.0297
vn 0.5691 -0.8218 -0.0281
vn -0.5692 0.8216 -0.0312
vn -0.6470 0.7619 -0.0295
vn -0.7620 -0.6459 0.0461
vn 0.7620 0.6459 -0.0461
vn 0.0017 0.0168 0.9999
vn 0.0018 0.0171 0.9999
vn 0.0020 0.0174 0.9998
vn 0.0022 0.0175 0.9998
vn 0.0019 0.0173 0.9998
vn 0.0020 0.0172 0.9999
vn 0.0019 0.0171 0.9999
vn 0.0023 0.0171 0.9999
vn 0.0024 0.0172 0.9998
vn 0.0020 0.0170 0.9999
vn 0.0019 0.0169 0.9999
vn 0.0021 0.0170 0.9999
vn 0.0023 0.0169 0.9999
vn 0.0016 0.0168 0.9999
vn 0.0017 0.0169 0.9999
vn 0.0020 0.0168 0.9999
vn 0.0019 0.0168 0.9999
vn 0.0021 0.0168 0.9999
vn 0.0022 0.0167 0.9999
vn 0.0021 0.0167 0.9999
vn 0.0021 0.0166 0.9999
vn 0.0025 0.0164 0.9999
vn 0.0022 0.0164 0.9999
vn 0.0018 0.0165 0.9999
vn 0.0020 0.0165 0.9999
vn 0.0019 0.0166 0.9999
vn 0.0019 0.0165 0.9999
vn 0.0019 0.0164 0.9999
vn 0.0017 0.0166 0.9999
vn 0.0018 0.0169 0.9999
vn 0.0017 0.0165 0.9999
vn 0.0016 0.0164 0.9999
vn 0.0017 0.0163 0.9999
vn 0.0016 0.0166 0.9999
vn 0.0016 0.0167 0.9999
vn 0.0015 0.0165 0.9999
vn 0.0014 0.0165 0.9999
vn 0.0012 0.0164 0.9999
vn 0.0013 0.0165 0.9999
vn 0.0014 0.0166 0.9999
vn 0.0013 0.0167 0.9999
vn 0.0013 0.0168 0.9999
vn 0.0011 0.0168 0.9999
vn 0.0009 0.0168 0.9999
vn 0.0018 0.0168 0.9999
vn 0.0012 0.0169 0.9999
vn 0.0014 0.0169 0.9999
vn 0.0014 0.0170 0.9999
vn 0.0012 0.0170 0.9999
vn 0.0014 0.0171 0.9999
vn 0.0013 0.0170 0.9999
vn 0.0013 0.0172 0.9999
vn 0.0015 0.0172 0.9999
vn 0.0013 0.0173 0.9999
vn 0.0016 0.0173 0.9998
vn 0.0015 0.0174 0.9998
vn 0.0016 0.0174 0.9998
vn 0.0016 0.0172 0.9998
vn 0.0017 0.0174 0.9998
vn 0.0018 0.0174 0.9998
vn 0.0018 0.0172 0.9999
vn 0.0007 0.0199 0.9998
vn -0.0002 0.0184 0.9998
vn -0.0077 0.0225 0.9997
vn -0.0063 0.0247 0.9997
vn 0.1300 0.9914 -0.0169
vn 0.1219 0.9924 -0.0164
vn 0.1381 0.9903 -0.0164
vn -0.0659 0.9977 -0.0167
vn -0.0740 0.9971 -0.0161
vn -0.0578 0.9982 -0.0161
vn -0.2593 0.9657 -0.0158
vn -0.2672 0.9635 -0.0152
vn -0.2515 0.9677 -0.0153
vn -0.4428 0.8965 -0.0143
vn -0.4500 0.8929 -0.0137
vn -0.4354 0.9001 -0.0138
vn -0.6092 0.7929 -0.0123
vn -0.6156 0.7880 -0.0116
vn -0.6027 0.7979 -0.0118
vn -0.7522 0.6589 -0.0098
vn -0.7575 0.6527 -0.0091
vn -0.7468 0.6650 -0.0093
vn -0.8663 0.4995 -0.0069
vn -0.8703 0.4924 -0.0062
vn -0.8622 0.5065 -0.0064
vn -0.9471 0.3209 -0.0038
vn -0.9497 0.3132 -0.0030
vn -0.9445 0.3286 -0.0033
vn -0.9915 0.1300 -0.0005
vn -0.9925 0.1220 0.0003
vn -0.9904 0.1381 -0.0000
vn -0.9978 -0.0659 0.0029
vn -0.9973 -0.0740 0.0036
vn -0.9983 -0.0578 0.0033
vn -0.9658 -0.2593 0.0061
vn -0.9636 -0.2671 0.0068
vn -0.9679 -0.2514 0.0065
vn -0.8966 -0.4427 0.0090
vn -0.8930 -0.4499 0.0097
vn -0.9002 -0.4354 0.0095
vn -0.7930 -0.6091 0.0117
vn -0.7880 -0.6155 0.0123
vn -0.7980 -0.6026 0.0121
vn -0.6589 -0.7521 0.0138
vn -0.6528 -0.7574 0.0145
vn -0.6650 -0.7467 0.0143
vn -0.4995 -0.8661 0.0155
vn -0.4925 -0.8702 0.0161
vn -0.5066 -0.8620 0.0160
vn -0.4995 -0.8662 0.0155
vn -0.3209 -0.9470 0.0165
vn -0.3132 -0.9495 0.0171
vn -0.3286 -0.9443 0.0171
vn -0.1300 -0.9914 0.0169
vn -0.1219 -0.9924 0.0175
vn -0.1381 -0.9903 0.0175
vn 0.0659 -0.9977 0.0167
vn 0.0740 -0.9971 0.0173
vn 0.0578 -0.9982 0.0173
vn 0.2593 -0.9657 0.0158
vn 0.2672 -0.9635 0.0164
vn 0.2515 -0.9677 0.0165
vn 0.4428 -0.8965 0.0143
vn 0.4500 -0.8929 0.0148
vn 0.4355 -0.9001 0.0150
vn 0.6092 -0.7929 0.0123
vn 0.6156 -0.7879 0.0128
vn 0.6027 -0.7979 0.0130
vn 0.7522 -0.6589 0.0098
vn 0.7575 -0.6527 0.0103
vn 0.7468 -0.6650 0.0105
vn 0.8663 -0.4995 0.0069
vn 0.8703 -0.4924 0.0074
vn 0.8622 -0.5065 0.0076
vn 0.9471 -0.3209 0.0038
vn 0.9497 -0.3132 0.0042
vn 0.9445 -0.3286 0.0045
vn 0.9915 -0.1300 0.0005
vn 0.9925 -0.1219 0.0009
vn 0.9904 -0.1381 0.0012
vn 0.9978 0.0659 -0.0029
vn 0.9973 0.0740 -0.0024
vn 0.9983 0.0578 -0.0021
vn 0.9658 0.2593 -0.0061
vn 0.9636 0.2671 -0.0056
vn 0.9679 0.2514 -0.0054
vn 0.8966 0.4427 -0.0090
vn 0.8930 0.4500 -0.0086
vn 0.9002 0.4354 -0.0083
vn 0.7930 0.6091 -0.0117
vn 0.7881 0.6155 -0.0112
vn 0.7980 0.6026 -0.0110
vn 0.6589 0.7521 -0.0138
vn 0.6528 0.7574 -0.0133
vn 0.6650 0.7467 -0.0132
vn 0.4995 0.8662 -0.0155
vn 0.4925 0.8702 -0.0149
vn 0.5066 0.8621 -0.0148
vn 0.3209 0.9470 -0.0165
vn 0.3132 0.9495 -0.0160
vn 0.3286 0.9443 -0.0159
vn -0.0146 -0.0194 -0.9997
vn -0.0156 -0.0188 -0.9997
vn -0.0157 -0.0227 -0.9996
vn -0.0142 -0.0248 -0.9996
vn 0.0013 -0.0096 -1.0000
vn 0.0015 -0.0112 -0.9999
vn 0.0096 -0.0124 -0.9999
vn 0.0088 -0.0099 -0.9999
vn -0.0155 -0.0131 -0.9998
vn -0.0155 -0.0123 -0.9998
vn -0.0160 -0.0129 -0.9998
vn -0.0163 -0.0154 -0.9997
vn -0.0020 -0.0210 -0.9998
vn -0.0033 -0.0221 -0.9997
vn 0.0023 -0.0280 -0.9996
vn 0.0044 -0.0265 -0.9996
vn -0.0104 -0.0046 -0.9999
vn -0.0094 -0.0046 -0.9999
vn -0.0062 -0.0021 -1.0000
vn -0.0087 -0.0028 -1.0000
vn -0.0069 -0.0219 -0.9997
vn -0.0084 -0.0222 -0.9997
vn -0.0057 -0.0282 -0.9996
vn -0.0032 -0.0284 -0.9996
vn -0.0030 -0.0063 -1.0000
vn -0.0022 -0.0074 -1.0000
vn 0.0043 -0.0061 -1.0000
vn 0.0022 -0.0047 -1.0000
vn -0.0162 -0.0163 -0.9997
vn -0.0168 -0.0154 -0.9997
vn -0.0174 -0.0178 -0.9997
vn -0.0168 -0.0202 -0.9997
vn 0.0020 -0.0130 -0.9999
vn 0.0016 -0.0147 -0.9999
vn 0.0097 -0.0175 -0.9998
vn 0.0099 -0.0150 -0.9998
vn -0.0146 -0.0099 -0.9998
vn -0.0142 -0.0092 -0.9999
vn -0.0139 -0.0083 -0.9999
vn -0.0151 -0.0105 -0.9998
vn -0.0051 -0.0225 -0.9997
vn -0.0066 -0.0232 -0.9997
vn -0.0026 -0.0295 -0.9996
vn -0.0001 -0.0289 -0.9996
vn -0.0069 -0.0040 -1.0000
vn -0.0059 -0.0045 -1.0000
vn -0.0010 -0.0021 -1.0000
vn -0.0035 -0.0019 -1.0000
vn -0.0103 -0.0212 -0.9997
vn -0.0116 -0.0210 -0.9997
vn -0.0105 -0.0263 -0.9996
vn -0.0082 -0.0274 -0.9996
vn -0.0004 -0.0086 -1.0000
vn 0.0001 -0.0100 -0.9999
vn 0.0076 -0.0100 -0.9999
vn 0.0062 -0.0079 -0.9999
vn -0.0166 -0.0127 -0.9998
vn -0.0166 -0.0119 -0.9998
vn -0.0171 -0.0125 -0.9998
vn -0.0175 -0.0150 -0.9997
vn 0.0013 -0.0164 -0.9999
vn 0.0005 -0.0180 -0.9998
vn 0.0078 -0.0223 -0.9997
vn 0.0090 -0.0200 -0.9998
vn -0.0126 -0.0072 -0.9999
vn -0.0118 -0.0069 -0.9999
vn -0.0102 -0.0050 -0.9999
vn -0.0122 -0.0064 -0.9999
vn -0.0086 -0.0228 -0.9997
vn -0.0101 -0.0230 -0.9997
vn -0.0077 -0.0290 -0.9995
vn -0.0052 -0.0295 -0.9996
vn -0.0035 -0.0048 -1.0000
vn -0.0026 -0.0058 -1.0000
vn 0.0038 -0.0041 -1.0000
vn 0.0016 -0.0029 -1.0000
vn -0.0131 -0.0193 -0.9997
vn -0.0141 -0.0187 -0.9997
vn -0.0141 -0.0227 -0.9996
vn -0.0125 -0.0246 -0.9996
vn 0.0013 -0.0151 -0.9999
vn 0.0009 -0.0168 -0.9999
vn 0.0087 -0.0201 -0.9998
vn 0.0091 -0.0175 -0.9998
vn 0.0011 -0.0117 -0.9999
vn 0.0011 -0.0133 -0.9999
vn 0.0091 -0.0150 -0.9998
vn 0.0086 -0.0124 -0.9999
vn -0.0156 -0.0093 -0.9998
vn -0.0152 -0.0086 -0.9998
vn -0.0149 -0.0077 -0.9999
vn -0.0162 -0.0099 -0.9998
vn -0.0006 -0.0193 -0.9998
vn -0.0018 -0.0205 -0.9998
vn 0.0042 -0.0260 -0.9997
vn 0.0061 -0.0244 -0.9997
vn -0.0096 -0.0056 -0.9999
vn -0.0086 -0.0057 -0.9999
vn -0.0054 -0.0033 -1.0000
vn -0.0078 -0.0039 -1.0000
vn -0.0119 -0.0217 -0.9997
vn -0.0132 -0.0214 -0.9997
vn -0.0123 -0.0267 -0.9996
vn -0.0101 -0.0280 -0.9996
vn -0.0006 -0.0067 -1.0000
vn -0.0000 -0.0081 -1.0000
vn 0.0075 -0.0077 -0.9999
vn 0.0059 -0.0057 -1.0000
vn -0.0149 -0.0164 -0.9998
vn -0.0155 -0.0156 -0.9998
vn -0.0161 -0.0180 -0.9997
vn -0.0153 -0.0204 -0.9997
vn 0.0002 -0.0184 -0.9998
vn -0.0007 -0.0199 -0.9998
vn 0.0063 -0.0247 -0.9997
vn 0.0077 -0.0225 -0.9997
vn -0.0135 -0.0065 -0.9999
vn -0.0127 -0.0061 -0.9999
vn -0.0111 -0.0041 -0.9999
vn -0.0131 -0.0057 -0.9999
vn -0.0035 -0.0212 -0.9998
vn -0.0050 -0.0220 -0.9997
vn -0.0006 -0.0281 -0.9996
vn 0.0019 -0.0273 -0.9996
vn -0.0063 -0.0053 -1.0000
vn -0.0053 -0.0059 -1.0000
vn -0.0003 -0.0037 -1.0000
vn -0.0028 -0.0032 -1.0000
vn -0.0001 0.0081 1.0000
vn 0.0007 0.0067 1.0000
vn -0.0059 0.0057 1.0000
vn -0.0075 0.0077 0.9999
vn 0.0050 0.0220 0.9997
vn 0.0035 0.0213 0.9998
vn -0.0019 0.0273 0.9996
vn 0.0006 0.0281 0.9996
vn -0.0009 0.0168 0.9999
vn -0.0013 0.0151 0.9999
vn -0.0092 0.0175 0.9998
vn -0.0087 0.0201 0.9998
vn 0.0025 0.0057 1.0000
vn 0.0036 0.0048 1.0000
vn -0.0016 0.0029 1.0000
vn -0.0038 0.0041 1.0000
vn 0.0019 0.0205 0.9998
vn 0.0006 0.0193 0.9998
vn -0.0061 0.0244 0.9997
vn -0.0042 0.0260 0.9997
vn -0.0012 0.0133 0.9999
vn -0.0010 0.0116 0.9999
vn -0.0086 0.0124 0.9999
vn -0.0091 0.0150 0.9998
vn 0.0058 0.0045 1.0000
vn 0.0071 0.0040 1.0000
vn 0.0035 0.0019 1.0000
vn 0.0010 0.0021 1.0000
vn -0.0005 0.0180 0.9998
vn -0.0013 0.0164 0.9999
vn -0.0090 0.0200 0.9998
vn -0.0078 0.0223 0.9997
vn -0.0001 0.0100 0.9999
vn 0.0005 0.0086 1.0000
vn -0.0062 0.0079 0.9999
vn -0.0076 0.0100 0.9999
vn 0.0093 0.0045 0.9999
vn 0.0106 0.0047 0.9999
vn 0.0087 0.0028 1.0000
vn 0.0062 0.0021 1.0000
vn -0.0017 0.0147 0.9999
vn -0.0020 0.0130 0.9999
vn -0.0099 0.0150 0.9998
vn -0.0097 0.0176 0.9998
vn 0.0021 0.0074 1.0000
vn 0.0031 0.0063 1.0000
vn -0.0022 0.0047 1.0000
vn -0.0043 0.0061 1.0000
vn 0.0126 0.0059 0.9999
vn 0.0136 0.0065 0.9999
vn 0.0131 0.0057 0.9999
vn 0.0111 0.0041 0.9999
vn 0.0052 0.0058 1.0000
vn 0.0064 0.0053 1.0000
vn 0.0028 0.0032 1.0000
vn 0.0003 0.0037 1.0000
vn 0.0152 0.0084 0.9998
vn 0.0158 0.0094 0.9998
vn 0.0162 0.0099 0.9998
vn 0.0149 0.0077 0.9999
vn 0.0086 0.0056 0.9999
vn 0.0098 0.0057 0.9999
vn 0.0078 0.0039 1.0000
vn 0.0054 0.0033 1.0000
vn 0.0166 0.0117 0.9998
vn 0.0167 0.0129 0.9998
vn 0.0175 0.0150 0.9997
vn 0.0171 0.0125 0.9998
vn 0.0117 0.0067 0.9999
vn 0.0127 0.0073 0.9999
vn 0.0122 0.0064 0.9999
vn 0.0102 0.0050 0.9999
vn 0.0168 0.0153 0.9997
vn 0.0163 0.0164 0.9997
vn 0.0168 0.0202 0.9997
vn 0.0174 0.0178 0.9997
vn 0.0142 0.0090 0.9999
vn 0.0147 0.0100 0.9998
vn 0.0152 0.0105 0.9998
vn 0.0139 0.0083 0.9999
vn 0.0156 0.0186 0.9997
vn 0.0146 0.0195 0.9997
vn 0.0142 0.0248 0.9996
vn 0.0157 0.0227 0.9996
vn 0.0155 0.0121 0.9998
vn 0.0155 0.0132 0.9998
vn 0.0163 0.0154 0.9997
vn 0.0160 0.0129 0.9998
vn 0.0133 0.0213 0.9997
vn 0.0119 0.0218 0.9997
vn 0.0102 0.0280 0.9996
vn 0.0123 0.0267 0.9996
vn 0.0155 0.0155 0.9998
vn 0.0150 0.0166 0.9998
vn 0.0153 0.0204 0.9997
vn 0.0161 0.0180 0.9997
vn 0.0101 0.0229 0.9997
vn 0.0086 0.0229 0.9997
vn 0.0052 0.0295 0.9996
vn 0.0077 0.0290 0.9995
vn 0.0142 0.0186 0.9997
vn 0.0131 0.0194 0.9997
vn 0.0125 0.0246 0.9996
vn 0.0141 0.0227 0.9996
vn 0.0067 0.0232 0.9997
vn 0.0051 0.0226 0.9997
vn 0.0001 0.0289 0.9996
vn 0.0026 0.0295 0.9996
vn 0.0117 0.0209 0.9997
vn 0.0103 0.0213 0.9997
vn 0.0082 0.0274 0.9996
vn 0.0105 0.0263 0.9996
vn 0.0033 0.0221 0.9998
vn 0.0020 0.0210 0.9998
vn -0.0044 0.0265 0.9996
vn -0.0023 0.0280 0.9996
vn -0.0015 0.0112 0.9999
vn -0.0013 0.0096 1.0000
vn -0.0088 0.0099 0.9999
vn -0.0096 0.0124 0.9999
vn 0.0085 0.0221 0.9997
vn 0.0069 0.0220 0.9997
vn 0.0032 0.0284 0.9996
vn 0.0057 0.0282 0.9996
usemtl Material.003
s off
f 1//1 289//1 833//1 290//1
f 289//2 3//2 292//2 833//2
f 833//3 292//3 4//3 291//3
f 290//4 833//4 291//4 2//4
f 3//5 293//5 834//5 292//5
f 293//6 5//6 295//6 834//6
f 834//7 295//7 6//7 294//7
f 292//8 834//8 294//8 4//8
f 5//9 296//9 835//9 295//9
f 296//10 7//10 298//10 835//10
f 835//11 298//11 8//11 297//11
f 295//12 835//12 297//12 6//12
f 7//13 299//13 836//13 298//13
f 299//14 9//14 301//14 836//14
f 836//15 301//15 10//15 300//15
f 298//16 836//16 300//16 8//16
f 9//17 302//17 837//17 301//17
f 302//18 11//18 304//18 837//18
f 837//19 304//19 12//19 303//19
f 301//20 837//20 303//20 10//20
f 11//21 305//21 838//21 304//21
f 305//22 13//22 307//22 838//22
f 838//23 307//23 14//23 306//23
f 304//24 838//24 306//24 12//24
f 13//25 308//25 839//25 307//25
f 308//26 15//26 310//26 839//26
f 839//27 310//27 16//27 309//27
f 307//28 839//28 309//28 14//28
f 15//29 311//29 840//29 310//29
f 311//30 17//30 313//30 840//30
f 840//31 313//31 18//31 312//31
f 310//32 840//32 312//32 16//32
f 17//33 314//33 841//33 313//33
f 314//34 19//34 316//34 841//34
f 841//35 316//35 20//35 315//35
f 313//36 841//36 315//36 18//36
f 19//37 317//37 842//37 316//37
f 317//38 21//38 319//38 842//38
f 842//39 319//39 22//39 318//39
f 316//40 842//40 318//40 20//40
f 21//41 320//41 843//41 319//41
f 320//42 23//42 322//42 843//42
f 843//43 322//43 24//43 321//43
f 319//44 843//44 321//44 22//44
f 23//45 323//45 844//45 322//45
f 323//46 25//46 325//46 844//46
f 844//47 325//47 26//47 324//47
f 322//48 844//48 324//48 24//48
f 25//49 326//49 845//49 325//49
f 326//50 27//50 328//50 845//50
f 845//51 328//51 28//51 327//51
f 325//52 845//52 327//52 26//52
f 27//53 329//53 846//53 328//53
f 329//54 29//54 331//54 846//54
f 846//55 331//55 30//55 330//55
f 328//56 846//56 330//56 28//56
f 29//57 332//57 847//57 331//57
f 332//58 31//58 334//58 847//58
f 847//59 334//59 32//59 333//59
f 331//60 847//60 333//60 30//60
f 31//61 335//61 848//61 334//61
f 335//62 33//62 337//62 848//62
f 848//63 337//63 34//63 336//63
f 334//64 848//64 336//64 32//64
f 33//65 338//65 849//65 337//65
f 338//66 35//66 340//66 849//66
f 849//67 340//67 36//67 339//67
f 337//68 849//68 339//68 34//68
f 35//69 341//69 850//69 340//69
f 341//70 37//70 343//70 850//70
f 850//71 343//71 38//71 342//71
f 340//72 850//72 342//72 36//72
f 37//73 344//73 851//73 343//73
f 344//74 39//74 346//74 851//74
f 851//75 346//75 40//75 345//75
f 343//76 851//76 345//76 38//76
f 39//77 347//77 852//77 346//77
f 347//78 41//78 349//78 852//78
f 852//79 349//79 42//79 348//79
f 346//80 852//80 348//80 40//80
f 41//81 350//81 853//81 349//81
f 350//82 43//82 352//82 853//82
f 853//83 352//83 44//83 351//83
f 349//84 853//84 351//84 42//84
f 43//85 353//85 854//85 352//85
f 353//86 45//86 355//86 854//86
f 854//87 355//87 46//87 354//87
f 352//88 854//88 354//88 44//88
f 45//89 356//89 855//89 355//89
f 356//90 47//90 358//90 855//90
f 855//91 358//91 48//91 357//91
f 355//92 855//92 357//92 46//92
f 47//93 359//93 856//93 358//93
f 359//94 49//94 361//94 856//94
f 856//95 361//95 50//95 360//95
f 358//96 856//96 360//96 48//96
f 49//97 362//97 857//97 361//97
f 362//98 51//98 364//98 857//98
f 857//99 364//99 52//99 363//99
f 361//100 857//100 363//100 50//100
f 51//101 365//101 858//101 364//101
f 365//102 53//102 367//102 858//102
f 858//103 367//103 54//103 366//103
f 364//104 858//104 366//104 52//104
f 53//105 368//105 859//105 367//105
f 368//106 55//106 370//106 859//106
f 859//107 370//107 56//107 369//107
f 367//108 859//108 369//108 54//108
f 55//109 371//109 860//109 370//109
f 371//110 57//110 373//110 860//110
f 860//111 373//111 58//111 372//111
f 370//112 860//112 372//112 56//112
f 57//113 374//113 861//113 373//113
f 374//114 59//114 376//114 861//114
f 861//115 376//115 60//115 375//115
f 373//116 861//116 375//116 58//116
f 59//117 377//117 862//117 376//117
f 377//118 61//118 379//118 862//118
f 862//119 379//119 62//119 378//119
f 376//120 862//120 378//120 60//120
f 61//121 380//121 863//121 379//121
f 380//122 63//122 382//122 863//122
f 863//123 382//123 64//123 381//123
f 379//124 863//124 381//124 62//124
f 63//125 383//125 864//125 382//125
f 383//126 1//126 290//126 864//126
f 864//127 290//127 2//127 384//127
f 382//128 864//128 384//128 64//128
f 226//65 674//65 993//65 673//65
f 674//68 227//68 675//68 993//68
f 993//67 675//67 228//67 676//67
f 673//66 993//66 676//66 225//66
f 225//69 676//69 994//69 677//69
f 676//72 228//72 678//72 994//72
f 994//129 678//129 230//129 679//129
f 677//70 994//70 679//70 229//70
f 229//73 679//73 995//73 680//73
f 679//76 230//76 681//76 995//76
f 995//75 681//75 232//75 682//75
f 680//74 995//74 682//74 231//74
f 231//77 682//77 996//77 683//77
f 682//80 232//80 684//80 996//80
f 996//79 684//79 234//79 685//79
f 683//78 996//78 685//78 233//78
f 233//81 685//81 997//81 686//81
f 685//84 234//84 687//84 997//84
f 997//83 687//83 236//83 688//83
f 686//82 997//82 688//82 235//82
f 235//85 688//85 998//85 689//85
f 688//88 236//88 690//88 998//88
f 998//87 690//87 238//87 691//87
f 689//86 998//86 691//86 237//86
f 237//89 691//89 999//89 692//89
f 691//92 238//92 693//92 999//92
f 999//91 693//91 240//91 694//91
f 692//90 999//90 694//90 239//90
f 239//93 694//93 1000//93 695//93
f 694//96 240//96 696//96 1000//96
f 1000//95 696//95 242//95 697//95
f 695//94 1000//94 697//94 241//94
f 241//97 697//97 1001//97 698//97
f 697//100 242//100 699//100 1001//100
f 1001//130 699//130 244//130 700//130
f 698//98 1001//98 700//98 243//98
f 243//101 700//101 1002//101 701//101
f 700//104 244//104 702//104 1002//104
f 1002//103 702//103 246//103 703//103
f 701//102 1002//102 703//102 245//102
f 245//105 703//105 1003//105 704//105
f 703//108 246//108 705//108 1003//108
f 1003//107 705//107 248//107 706//107
f 704//106 1003//106 706//106 247//106
f 247//109 706//109 1004//109 707//109
f 706//112 248//112 708//112 1004//112
f 1004//131 708//131 250//131 709//131
f 707//110 1004//110 709//110 249//110
f 249//113 709//113 1005//113 710//113
f 709//116 250//116 711//116 1005//116
f 1005//115 711//115 252//115 712//115
f 710//114 1005//114 712//114 251//114
f 251//117 712//117 1006//117 713//117
f 712//120 252//120 714//120 1006//120
f 1006//119 714//119 254//119 715//119
f 713//118 1006//118 715//118 253//118
f 253//121 715//121 1007//121 716//121
f 715//124 254//124 717//124 1007//124
f 1007//123 717//123 256//123 718//123
f 716//122 1007//122 718//122 255//122
f 255//132 718//132 1008//132 719//132
f 718//128 256//128 720//128 1008//128
f 1008//127 720//127 258//127 721//127
f 719//126 1008//126 721//126 257//126
f 257//1 721//1 1009//1 722//1
f 721//4 258//4 723//4 1009//4
f 1009//3 723//3 260//3 724//3
f 722//2 1009//2 724//2 259//2
f 259//5 724//5 1010//5 725//5
f 724//8 260//8 726//8 1010//8
f 1010//7 726//7 262//7 727//7
f 725//6 1010//6 727//6 261//6
f 261//9 727//9 1011//9 728//9
f 727//12 262//12 729//12 1011//12
f 1011//11 729//11 264//11 730//11
f 728//10 1011//10 730//10 263//10
f 263//13 730//13 1012//13 731//13
f 730//16 264//16 732//16 1012//16
f 1012//15 732//15 266//15 733//15
f 731//14 1012//14 733//14 265//14
f 265//17 733//17 1013//17 734//17
f 733//20 266//20 735//20 1013//20
f 1013//19 735//19 268//19 736//19
f 734//18 1013//18 736//18 267//18
f 267//21 736//21 1014//21 737//21
f 736//24 268//24 738//24 1014//24
f 1014//23 738//23 270//23 739//23
f 737//22 1014//22 739//22 269//22
f 269//25 739//25 1015//25 740//25
f 739//28 270//28 741//28 1015//28
f 1015//27 741//27 272//27 742//27
f 740//26 1015//26 742//26 271//26
f 271//29 742//29 1016//29 743//29
f 742//32 272//32 744//32 1016//32
f 1016//31 744//31 274//31 745//31
f 743//30 1016//30 745//30 273//30
f 273//33 745//33 1017//33 746//33
f 745//36 274//36 747//36 1017//36
f 1017//35 747//35 276//35 748//35
f 746//34 1017//34 748//34 275//34
f 275//37 748//37 1018//37 749//37
f 748//40 276//40 750//40 1018//40
f 1018//39 750//39 278//39 751//39
f 749//38 1018//38 751//38 277//38
f 277//133 751//133 1019//133 752//133
f 751//44 278//44 753//44 1019//44
f 1019//43 753//43 280//43 754//43
f 752//42 1019//42 754//42 279//42
f 279//45 754//45 1020//45 755//45
f 754//48 280//48 756//48 1020//48
f 1020//47 756//47 282//47 757//47
f 755//134 1020//134 757//134 281//134
f 281//49 757//49 1021//49 758//49
f 757//135 282//135 759//135 1021//135
f 1021//51 759//51 284//51 760//51
f 758//50 1021//50 760//50 283//50
f 283//53 760//53 1022//53 761//53
f 760//56 284//56 762//56 1022//56
f 1022//55 762//55 286//55 763//55
f 761//54 1022//54 763//54 285//54
f 285//57 763//57 1023//57 764//57
f 763//60 286//60 765//60 1023//60
f 1023//59 765//59 288//59 766//59
f 764//58 1023//58 766//58 287//58
f 287//61 766//61 1024//61 767//61
f 766//136 288//136 768//136 1024//136
f 1024//63 768//63 227//63 674//63
f 767//62 1024//62 674//62 226//62
f 9//137 299//137 1025//137 770//137
f 299//138 7//138 769//138 1025//138
f 1025//139 769//139 231//139 683//139
f 770//140 1025//140 683//140 233//140
f 60//141 378//141 1026//141 772//141
f 378//142 62//142 771//142 1026//142
f 1026//143 771//143 286//143 762//143
f 772//144 1026//144 762//144 284//144
f 27//145 326//145 1027//145 774//145
f 326//146 25//146 773//146 1027//146
f 1027//147 773//147 249//147 710//147
f 774//148 1027//148 710//148 251//148
f 8//149 300//149 1028//149 776//149
f 300//150 10//150 775//150 1028//150
f 1028//151 775//151 234//151 684//151
f 776//152 1028//152 684//152 232//152
f 45//153 353//153 1029//153 778//153
f 353//154 43//154 777//154 1029//154
f 1029//155 777//155 267//155 737//155
f 778//156 1029//156 737//156 269//156
f 26//157 327//157 1030//157 780//157
f 327//158 28//158 779//158 1030//158
f 1030//159 779//159 252//159 711//159
f 780//160 1030//160 711//160 250//160
f 63//161 380//161 1031//161 782//161
f 380//162 61//162 781//162 1031//162
f 1031//163 781//163 285//163 764//163
f 782//164 1031//164 764//164 287//164
f 44//165 354//165 1032//165 784//165
f 354//166 46//166 783//166 1032//166
f 1032//167 783//167 270//167 738//167
f 784//168 1032//168 738//168 268//168
f 11//169 302//169 1033//169 785//169
f 302//170 9//170 770//170 1033//170
f 1033//171 770//171 233//171 686//171
f 785//172 1033//172 686//172 235//172
f 62//173 381//173 1034//173 771//173
f 381//174 64//174 786//174 1034//174
f 1034//175 786//175 288//175 765//175
f 771//176 1034//176 765//176 286//176
f 29//177 329//177 1035//177 787//177
f 329//178 27//178 774//178 1035//178
f 1035//179 774//179 251//179 713//179
f 787//180 1035//180 713//180 253//180
f 10//181 303//181 1036//181 775//181
f 303//182 12//182 788//182 1036//182
f 1036//183 788//183 236//183 687//183
f 775//184 1036//184 687//184 234//184
f 47//185 356//185 1037//185 789//185
f 356//186 45//186 778//186 1037//186
f 1037//187 778//187 269//187 740//187
f 789//188 1037//188 740//188 271//188
f 28//144 330//144 1038//144 779//144
f 330//143 30//143 790//143 1038//143
f 1038//142 790//142 254//142 714//142
f 779//141 1038//141 714//141 252//141
f 1//189 383//189 1039//189 791//189
f 383//190 63//190 782//190 1039//190
f 1039//191 782//191 287//191 767//191
f 791//192 1039//192 767//192 226//192
f 46//193 357//193 1040//193 783//193
f 357//194 48//194 792//194 1040//194
f 1040//195 792//195 272//195 741//195
f 783//196 1040//196 741//196 270//196
f 13//156 305//156 1041//156 793//156
f 305//155 11//155 785//155 1041//155
f 1041//154 785//154 235//154 689//154
f 793//153 1041//153 689//153 237//153
f 64//197 384//197 1042//197 786//197
f 384//198 2//198 794//198 1042//198
f 1042//199 794//199 227//199 768//199
f 786//200 1042//200 768//200 288//200
f 31//164 332//164 1043//164 795//164
f 332//163 29//163 787//163 1043//163
f 1043//162 787//162 253//162 716//162
f 795//161 1043//161 716//161 255//161
f 12//168 306//168 1044//168 788//168
f 306//167 14//167 796//167 1044//167
f 1044//166 796//166 238//166 690//166
f 788//165 1044//165 690//165 236//165
f 49//201 359//201 1045//201 797//201
f 359//202 47//202 789//202 1045//202
f 1045//203 789//203 271//203 743//203
f 797//204 1045//204 743//204 273//204
f 30//176 333//176 1046//176 790//176
f 333//175 32//175 798//175 1046//175
f 1046//174 798//174 256//174 717//174
f 790//173 1046//173 717//173 254//173
f 48//205 360//205 1047//205 792//205
f 360//206 50//206 799//206 1047//206
f 1047//207 799//207 274//207 744//207
f 792//208 1047//208 744//208 272//208
f 15//188 308//188 1048//188 800//188
f 308//187 13//187 793//187 1048//187
f 1048//186 793//186 237//186 692//186
f 800//185 1048//185 692//185 239//185
f 33//192 335//192 1049//192 801//192
f 335//191 31//191 795//191 1049//191
f 1049//190 795//190 255//190 719//190
f 801//189 1049//189 719//189 257//189
f 14//196 309//196 1050//196 796//196
f 309//195 16//195 802//195 1050//195
f 1050//194 802//194 240//194 693//194
f 796//193 1050//193 693//193 238//193
f 51//209 362//209 1051//209 803//209
f 362//210 49//210 797//210 1051//210
f 1051//211 797//211 273//211 746//211
f 803//212 1051//212 746//212 275//212
f 32//200 336//200 1052//200 798//200
f 336//199 34//199 804//199 1052//199
f 1052//198 804//198 258//198 720//198
f 798//197 1052//197 720//197 256//197
f 50//213 363//213 1053//213 799//213
f 363//214 52//214 805//214 1053//214
f 1053//215 805//215 276//215 747//215
f 799//216 1053//216 747//216 274//216
f 17//204 311//204 1054//204 806//204
f 311//203 15//203 800//203 1054//203
f 1054//202 800//202 239//202 695//202
f 806//201 1054//201 695//201 241//201
f 35//217 338//217 1055//217 807//217
f 338//218 33//218 801//218 1055//218
f 1055//219 801//219 257//219 722//219
f 807//220 1055//220 722//220 259//220
f 16//208 312//208 1056//208 802//208
f 312//207 18//207 808//207 1056//207
f 1056//206 808//206 242//206 696//206
f 802//205 1056//205 696//205 240//205
f 53//221 365//221 1057//221 809//221
f 365//222 51//222 803//222 1057//222
f 1057//223 803//223 275//223 749//223
f 809//224 1057//224 749//224 277//224
f 34//225 339//225 1058//225 804//225
f 339//226 36//226 810//226 1058//226
f 1058//227 810//227 260//227 723//227
f 804//228 1058//228 723//228 258//228
f 52//229 366//229 1059//229 805//229
f 366//230 54//230 811//230 1059//230
f 1059//231 811//231 278//231 750//231
f 805//232 1059//232 750//232 276//232
f 19//212 314//212 1060//212 812//212
f 314//211 17//211 806//211 1060//211
f 1060//210 806//210 241//210 698//210
f 812//209 1060//209 698//209 243//209
f 37//233 341//233 1061//233 813//233
f 341//234 35//234 807//234 1061//234
f 1061//235 807//235 259//235 725//235
f 813//236 1061//236 725//236 261//236
f 18//216 315//216 1062//216 808//216
f 315//215 20//215 814//215 1062//215
f 1062//214 814//214 244//214 699//214
f 808//213 1062//213 699//213 242//213
f 3//220 289//220 1063//220 815//220
f 289//219 1//219 791//219 1063//219
f 1063//218 791//218 226//218 673//218
f 815//217 1063//217 673//217 225//217
f 55//237 368//237 1064//237 816//237
f 368//238 53//238 809//238 1064//238
f 1064//239 809//239 277//239 752//239
f 816//240 1064//240 752//240 279//240
f 36//241 342//241 1065//241 810//241
f 342//242 38//242 817//242 1065//242
f 1065//243 817//243 262//243 726//243
f 810//244 1065//244 726//244 260//244
f 54//245 369//245 1066//245 811//245
f 369//246 56//246 818//246 1066//246
f 1066//247 818//247 280//247 753//247
f 811//248 1066//248 753//248 278//248
f 21//224 317//224 1067//224 819//224
f 317//223 19//223 812//223 1067//223
f 1067//222 812//222 243//222 701//222
f 819//221 1067//221 701//221 245//221
f 2//228 291//228 1068//228 794//228
f 291//227 4//227 820//227 1068//227
f 1068//226 820//226 228//226 675//226
f 794//225 1068//225 675//225 227//225
f 39//249 344//249 1069//249 821//249
f 344//250 37//250 813//250 1069//250
f 1069//251 813//251 261//251 728//251
f 821//252 1069//252 728//252 263//252
f 20//232 318//232 1070//232 814//232
f 318//231 22//231 822//231 1070//231
f 1070//230 822//230 246//230 702//230
f 814//229 1070//229 702//229 244//229
f 57//253 371//253 1071//253 823//253
f 371//254 55//254 816//254 1071//254
f 1071//255 816//255 279//255 755//255
f 823//256 1071//256 755//256 281//256
f 38//257 345//257 1072//257 817//257
f 345//258 40//258 824//258 1072//258
f 1072//259 824//259 264//259 729//259
f 817//260 1072//260 729//260 262//260
f 5//236 293//236 1073//236 825//236
f 293//235 3//235 815//235 1073//235
f 1073//234 815//234 225//234 677//234
f 825//233 1073//233 677//233 229//233
f 56//261 372//261 1074//261 818//261
f 372//262 58//262 826//262 1074//262
f 1074//263 826//263 282//263 756//263
f 818//264 1074//264 756//264 280//264
f 23//240 320//240 1075//240 827//240
f 320//239 21//239 819//239 1075//239
f 1075//238 819//238 245//238 704//238
f 827//237 1075//237 704//237 247//237
f 4//244 294//244 1076//244 820//244
f 294//243 6//243 828//243 1076//243
f 1076//242 828//242 230//242 678//242
f 820//241 1076//241 678//241 228//241
f 41//140 347//140 1077//140 829//140
f 347//139 39//139 821//139 1077//139
f 1077//265 821//265 263//265 731//265
f 829//137 1077//137 731//137 265//137
f 22//248 321//248 1078//248 822//248
f 321//247 24//247 830//247 1078//247
f 1078//246 830//246 248//246 705//246
f 822//245 1078//245 705//245 246//245
f 59//148 374//148 1079//148 831//148
f 374//147 57//147 823//147 1079//147
f 1079//146 823//146 281//146 758//146
f 831//145 1079//145 758//145 283//145
f 40//266 348//266 1080//266 824//266
f 348//151 42//151 832//151 1080//151
f 1080//150 832//150 266//150 732//150
f 824//149 1080//149 732//149 264//149
f 7//252 296//252 1081//252 769//252
f 296//251 5//251 825//251 1081//251
f 1081//250 825//250 229//250 680//250
f 769//249 1081//249 680//249 231//249
f 58//160 375//160 1082//160 826//160
f 375//159 60//159 772//159 1082//159
f 1082//158 772//158 284//158 759//158
f 826//157 1082//157 759//157 282//157
f 25//256 323//256 1083//256 773//256
f 323//255 23//255 827//255 1083//255
f 1083//254 827//254 247//254 707//254
f 773//253 1083//253 707//253 249//253
f 6//260 297//260 1084//260 828//260
f 297//259 8//259 776//259 1084//259
f 1084//258 776//258 232//258 681//258
f 828//257 1084//257 681//257 230//257
f 43//172 350//172 1085//172 777//172
f 350//171 41//171 829//171 1085//171
f 1085//170 829//170 265//170 734//170
f 777//169 1085//169 734//169 267//169
f 24//264 324//264 1086//264 830//264
f 324//263 26//263 780//263 1086//263
f 1086//262 780//262 250//262 708//262
f 830//261 1086//261 708//261 248//261
f 61//180 377//180 1087//180 781//180
f 377//179 59//179 831//179 1087//179
f 1087//178 831//178 283//178 761//178
f 781//177 1087//177 761//177 285//177
f 42//184 351//184 1088//184 832//184
f 351//183 44//183 784//183 1088//183
f 1088//182 784//182 268//182 735//182
f 832//181 1088//181 735//181 266//181
usemtl Material.006
f 129//267 386//267 865//267 544//267
f 386//268 66//268 387//268 865//268
f 865//269 387//269 68//269 482//269
f 544//267 865//267 482//267 130//267
f 130//267 482//267 866//267 543//267
f 482//270 68//270 390//270 866//270
f 866//271 390//271 70//271 483//271
f 543//267 866//267 483//267 131//267
f 131//267 483//267 867//267 542//267
f 483//272 70//272 393//272 867//272
f 867//273 393//273 72//273 484//273
f 542//267 867//267 484//267 132//267
f 132//267 484//267 868//267 541//267
f 484//274 72//274 396//274 868//274
f 868//275 396//275 74//275 485//275
f 541//267 868//267 485//267 133//267
f 133//267 485//267 869//267 540//267
f 485//276 74//276 399//276 869//276
f 869//277 399//277 76//277 486//277
f 540//267 869//267 486//267 134//267
f 134//267 486//267 870//267 539//267
f 486//278 76//278 402//278 870//278
f 870//279 402//279 78//279 487//279
f 539//280 870//280 487//280 135//280
f 135//267 487//267 871//267 538//267
f 487//279 78//279 405//279 871//279
f 871//279 405//279 80//279 488//279
f 538//267 871//267 488//267 136//267
f 136//281 488//281 872//281 537//281
f 488//282 80//282 408//282 872//282
f 872//283 408//283 82//283 489//283
f 537//281 872//281 489//281 137//281
f 137//281 489//281 873//281 536//281
f 489//284 82//284 411//284 873//284
f 873//285 411//285 84//285 490//285
f 536//281 873//281 490//281 138//281
f 138//281 490//281 874//281 535//281
f 490//286 84//286 414//286 874//286
f 874//287 414//287 86//287 491//287
f 535//281 874//281 491//281 139//281
f 139//281 491//281 875//281 534//281
f 491//288 86//288 417//288 875//288
f 875//289 417//289 88//289 492//289
f 534//281 875//281 492//281 140//281
f 140//281 492//281 876//281 533//281
f 492//287 88//287 420//287 876//287
f 876//290 420//290 90//290 493//290
f 533//281 876//281 493//281 141//281
f 141//281 493//281 877//281 532//281
f 493//291 90//291 423//291 877//291
f 877//292 423//292 92//292 494//292
f 532//281 877//281 494//281 142//281
f 142//281 494//281 878//281 531//281
f 494//293 92//293 426//293 878//293
f 878//294 426//294 94//294 495//294
f 531//281 878//281 495//281 143//281
f 143//281 495//281 879//281 530//281
f 495//290 94//290 429//290 879//290
f 879//295 429//295 96//295 496//295
f 530//281 879//281 496//281 144//281
f 144//296 496//296 880//296 529//296
f 496//297 96//297 432//297 880//297
f 880//298 432//298 98//298 497//298
f 529//296 880//296 497//296 145//296
f 145//296 497//296 881//296 528//296
f 497//299 98//299 435//299 881//299
f 881//300 435//300 100//300 498//300
f 528//296 881//296 498//296 146//296
f 146//296 498//296 882//296 527//296
f 498//301 100//301 438//301 882//301
f 882//302 438//302 102//302 499//302
f 527//296 882//296 499//296 147//296
f 147//281 499//281 883//281 526//281
f 499//297 102//297 441//297 883//297
f 883//303 441//303 104//303 500//303
f 526//296 883//296 500//296 148//296
f 148//296 500//296 884//296 525//296
f 500//304 104//304 444//304 884//304
f 884//305 444//305 106//305 501//305
f 525//296 884//296 501//296 149//296
f 149//296 501//296 885//296 524//296
f 501//306 106//306 447//306 885//306
f 885//307 447//307 108//307 502//307
f 524//296 885//296 502//296 150//296
f 150//296 502//296 886//296 523//296
f 502//267 108//267 450//267 886//267
f 886//308 450//308 110//308 503//308
f 523//296 886//296 503//296 151//296
f 151//296 503//296 887//296 522//296
f 503//309 110//309 453//309 887//309
f 887//310 453//310 112//310 504//310
f 522//296 887//296 504//296 152//296
f 152//311 504//311 888//311 521//311
f 504//312 112//312 456//312 888//312
f 888//313 456//313 114//313 505//313
f 521//311 888//311 505//311 153//311
f 153//311 505//311 889//311 520//311
f 505//314 114//314 459//314 889//314
f 889//315 459//315 116//315 506//315
f 520//311 889//311 506//311 154//311
f 154//311 506//311 890//311 519//311
f 506//316 116//316 462//316 890//316
f 890//316 462//316 118//316 507//316
f 519//311 890//311 507//311 155//311
f 155//311 507//311 891//311 518//311
f 507//317 118//317 465//317 891//317
f 891//318 465//318 120//318 508//318
f 518//311 891//311 508//311 156//311
f 156//311 508//311 892//311 517//311
f 508//319 120//319 468//319 892//319
f 892//320 468//320 122//320 509//320
f 517//311 892//311 509//311 157//311
f 157//311 509//311 893//311 516//311
f 509//321 122//321 471//321 893//321
f 893//322 471//322 124//322 510//322
f 516//311 893//311 510//311 158//311
f 158//311 510//311 894//311 515//311
f 510//323 124//323 474//323 894//323
f 894//324 474//324 126//324 511//324
f 515//311 894//311 511//311 159//311
f 159//311 511//311 895//311 514//311
f 511//325 126//325 477//325 895//325
f 895//325 477//325 128//325 512//325
f 514//311 895//311 512//311 160//311
f 160//267 512//267 896//267 513//267
f 512//326 128//326 480//326 896//326
f 896//327 480//327 66//327 386//327
f 513//267 896//267 386//267 129//267
f 147//328 527//328 897//328 642//328
f 527//329 146//329 641//329 897//329
f 897//330 641//330 210//330 623//330
f 642//331 897//331 623//331 211//331
f 127//332 478//332 898//332 479//332
f 478//333 160//333 513//333 898//333
f 898//334 513//334 129//334 481//334
f 479//332 898//332 481//332 65//332
f 125//335 475//335 899//335 476//335
f 475//336 159//336 514//336 899//336
f 899//337 514//337 160//337 478//337
f 476//335 899//335 478//335 127//335
f 123//338 472//338 900//338 473//338
f 472//339 158//339 515//339 900//339
f 900//340 515//340 159//340 475//340
f 473//338 900//338 475//338 125//338
f 121//341 469//341 901//341 470//341
f 469//342 157//342 516//342 901//342
f 901//343 516//343 158//343 472//343
f 470//341 901//341 472//341 123//341
f 119//344 466//344 902//344 467//344
f 466//345 156//345 517//345 902//345
f 902//346 517//346 157//346 469//346
f 467//344 902//344 469//344 121//344
f 117//347 463//347 903//347 464//347
f 463//348 155//348 518//348 903//348
f 903//349 518//349 156//349 466//349
f 464//347 903//347 466//347 119//347
f 115//350 460//350 904//350 461//350
f 460//351 154//351 519//351 904//351
f 904//352 519//352 155//352 463//352
f 461//350 904//350 463//350 117//350
f 113//353 457//353 905//353 458//353
f 457//354 153//354 520//354 905//354
f 905//355 520//355 154//355 460//355
f 458//353 905//353 460//353 115//353
f 111//356 454//356 906//356 455//356
f 454//357 152//357 521//357 906//357
f 906//358 521//358 153//358 457//358
f 455//356 906//356 457//356 113//356
f 109//359 451//359 907//359 452//359
f 451//360 151//360 522//360 907//360
f 907//361 522//361 152//361 454//361
f 452//359 907//359 454//359 111//359
f 107//362 448//362 908//362 449//362
f 448//363 150//363 523//363 908//363
f 908//364 523//364 151//364 451//364
f 449//362 908//362 451//362 109//362
f 105//365 445//365 909//365 446//365
f 445//366 149//366 524//366 909//366
f 909//367 524//367 150//367 448//367
f 446//365 909//365 448//365 107//365
f 103//368 442//368 910//368 443//368
f 442//369 148//369 525//369 910//369
f 910//370 525//370 149//370 445//370
f 443//368 910//368 445//368 105//368
f 101//371 439//371 911//371 440//371
f 439//372 147//372 526//372 911//372
f 911//373 526//373 148//373 442//373
f 440//371 911//371 442//371 103//371
f 99//374 436//374 912//374 437//374
f 436//375 146//375 527//375 912//375
f 912//376 527//376 147//376 439//376
f 437//377 912//377 439//377 101//377
f 97//378 433//378 913//378 434//378
f 433//379 145//379 528//379 913//379
f 913//380 528//380 146//380 436//380
f 434//378 913//378 436//378 99//378
f 95//381 430//381 914//381 431//381
f 430//382 144//382 529//382 914//382
f 914//383 529//383 145//383 433//383
f 431//381 914//381 433//381 97//381
f 93//384 427//384 915//384 428//384
f 427//385 143//385 530//385 915//385
f 915//386 530//386 144//386 430//386
f 428//384 915//384 430//384 95//384
f 91//387 424//387 916//387 425//387
f 424//388 142//388 531//388 916//388
f 916//389 531//389 143//389 427//389
f 425//387 916//387 427//387 93//387
f 89//390 421//390 917//390 422//390
f 421//391 141//391 532//391 917//391
f 917//392 532//392 142//392 424//392
f 422//390 917//390 424//390 91//390
f 87//393 418//393 918//393 419//393
f 418//394 140//394 533//394 918//394
f 918//395 533//395 141//395 421//395
f 419//393 918//393 421//393 89//393
f 85//396 415//396 919//396 416//396
f 415//397 139//397 534//397 919//397
f 919//398 534//398 140//398 418//398
f 416//396 919//396 418//396 87//396
f 83//399 412//399 920//399 413//399
f 412//400 138//400 535//400 920//400
f 920//401 535//401 139//401 415//401
f 413//399 920//399 415//399 85//399
f 81//402 409//402 921//402 410//402
f 409//403 137//403 536//403 921//403
f 921//404 536//404 138//404 412//404
f 410//402 921//402 412//402 83//402
f 79//405 406//405 922//405 407//405
f 406//406 136//406 537//406 922//406
f 922//407 537//407 137//407 409//407
f 407//405 922//405 409//405 81//405
f 77//408 403//408 923//408 404//408
f 403//409 135//409 538//409 923//409
f 923//410 538//410 136//410 406//410
f 404//408 923//408 406//408 79//408
f 75//411 400//411 924//411 401//411
f 400//412 134//412 539//412 924//412
f 924//413 539//413 135//413 403//413
f 401//411 924//411 403//411 77//411
f 73//414 397//414 925//414 398//414
f 397//415 133//415 540//415 925//415
f 925//416 540//416 134//416 400//416
f 398//414 925//414 400//414 75//414
f 71//417 394//417 926//417 395//417
f 394//418 132//418 541//418 926//418
f 926//419 541//419 133//419 397//419
f 395//417 926//417 397//417 73//417
f 69//420 391//420 927//420 392//420
f 391//421 131//421 542//421 927//421
f 927//422 542//422 132//422 394//422
f 392//420 927//420 394//420 71//420
f 67//423 388//423 928//423 389//423
f 388//424 130//424 543//424 928//424
f 928//425 543//425 131//425 391//425
f 389//423 928//423 391//423 69//423
f 65//426 481//426 929//426 385//426
f 481//427 129//427 544//427 929//427
f 929//428 544//428 130//428 388//428
f 385//426 929//426 388//426 67//426
f 77//429 404//429 930//429 578//429
f 404//430 79//430 577//430 930//430
f 930//431 577//431 168//431 551//431
f 578//432 930//432 551//432 167//432
f 95//433 431//433 931//433 580//433
f 431//434 97//434 579//434 931//434
f 931//435 579//435 177//435 560//435
f 580//436 931//436 560//436 176//436
f 113//437 458//437 932//437 582//437
f 458//438 115//438 581//438 932//438
f 932//439 581//439 186//439 569//439
f 582//440 932//440 569//440 185//440
f 69//441 392//441 933//441 584//441
f 392//442 71//442 583//442 933//442
f 933//443 583//443 164//443 547//443
f 584//444 933//444 547//444 163//444
f 87//445 419//445 934//445 586//445
f 419//446 89//446 585//446 934//446
f 934//447 585//447 173//447 556//447
f 586//448 934//448 556//448 172//448
f 105//449 446//449 935//449 588//449
f 446//450 107//450 587//450 935//450
f 935//451 587//451 182//451 565//451
f 588//452 935//452 565//452 181//452
f 123//453 473//453 936//453 590//453
f 473//454 125//454 589//454 936//454
f 936//455 589//455 191//455 574//455
f 590//456 936//456 574//456 190//456
f 79//457 407//457 937//457 577//457
f 407//458 81//458 591//458 937//458
f 937//459 591//459 169//459 552//459
f 577//460 937//460 552//460 168//460
f 97//461 434//461 938//461 579//461
f 434//462 99//462 592//462 938//462
f 938//463 592//463 178//463 561//463
f 579//464 938//464 561//464 177//464
f 115//465 461//465 939//465 581//465
f 461//466 117//466 593//466 939//466
f 939//467 593//467 187//467 570//467
f 581//468 939//468 570//468 186//468
f 71//469 395//469 940//469 583//469
f 395//470 73//470 594//470 940//470
f 940//471 594//471 165//471 548//471
f 583//472 940//472 548//472 164//472
f 89//473 422//473 941//473 585//473
f 422//474 91//474 595//474 941//474
f 941//475 595//475 174//475 557//475
f 585//476 941//476 557//476 173//476
f 107//477 449//477 942//477 587//477
f 449//478 109//478 596//478 942//478
f 942//479 596//479 183//479 566//479
f 587//480 942//480 566//480 182//480
f 125//481 476//481 943//481 589//481
f 476//482 127//482 597//482 943//482
f 943//483 597//483 192//483 575//483
f 589//484 943//484 575//484 191//484
f 81//485 410//485 944//485 591//485
f 410//486 83//486 598//486 944//486
f 944//487 598//487 170//487 553//487
f 591//488 944//488 553//488 169//488
f 99//489 437//489 945//489 592//489
f 437//490 101//490 599//490 945//490
f 945//491 599//491 179//491 562//491
f 592//492 945//492 562//492 178//492
f 117//493 464//493 946//493 593//493
f 464//494 119//494 600//494 946//494
f 946//495 600//495 188//495 571//495
f 593//496 946//496 571//496 187//496
f 73//497 398//497 947//497 594//497
f 398//498 75//498 601//498 947//498
f 947//499 601//499 166//499 549//499
f 594//500 947//500 549//500 165//500
f 91//501 425//501 948//501 595//501
f 425//502 93//502 602//502 948//502
f 948//503 602//503 175//503 558//503
f 595//504 948//504 558//504 174//504
f 109//505 452//505 949//505 596//505
f 452//506 111//506 603//506 949//506
f 949//507 603//507 184//507 567//507
f 596//508 949//508 567//508 183//508
f 65//509 385//509 950//509 605//509
f 385//510 67//510 604//510 950//510
f 950//511 604//511 162//511 545//511
f 605//512 950//512 545//512 161//512
f 127//513 479//513 951//513 597//513
f 479//514 65//514 605//514 951//514
f 951//515 605//515 161//515 576//515
f 597//516 951//516 576//516 192//516
f 83//517 413//517 952//517 598//517
f 413//518 85//518 606//518 952//518
f 952//519 606//519 171//519 554//519
f 598//520 952//520 554//520 170//520
f 101//521 440//521 953//521 599//521
f 440//522 103//522 607//522 953//522
f 953//523 607//523 180//523 563//523
f 599//524 953//524 563//524 179//524
f 119//525 467//525 954//525 600//525
f 467//526 121//526 608//526 954//526
f 954//527 608//527 189//527 572//527
f 600//528 954//528 572//528 188//528
f 75//529 401//529 955//529 601//529
f 401//530 77//530 578//530 955//530
f 955//531 578//531 167//531 550//531
f 601//532 955//532 550//532 166//532
f 93//533 428//533 956//533 602//533
f 428//534 95//534 580//534 956//534
f 956//535 580//535 176//535 559//535
f 602//536 956//536 559//536 175//536
f 111//537 455//537 957//537 603//537
f 455//538 113//538 582//538 957//538
f 957//539 582//539 185//539 568//539
f 603//540 957//540 568//540 184//540
f 67//541 389//541 958//541 604//541
f 389//542 69//542 584//542 958//542
f 958//543 584//543 163//543 546//543
f 604//544 958//544 546//544 162//544
f 85//545 416//545 959//545 606//545
f 416//546 87//546 586//546 959//546
f 959//547 586//547 172//547 555//547
f 606//548 959//548 555//548 171//548
f 103//549 443//549 960//549 607//549
f 443//550 105//550 588//550 960//550
f 960//551 588//551 181//551 564//551
f 607//552 960//552 564//552 180//552
f 121//553 470//553 961//553 608//553
f 470//554 123//554 590//554 961//554
f 961//555 590//555 190//555 573//555
f 608//556 961//556 573//556 189//556
f 160//557 514//557 962//557 644//557
f 514//558 159//558 643//558 962//558
f 962//559 643//559 223//559 610//559
f 644//560 962//560 610//560 224//560
f 133//561 541//561 963//561 646//561
f 541//562 132//562 645//562 963//562
f 963//563 645//563 196//563 637//563
f 646//564 963//564 637//564 197//564
f 146//565 528//565 964//565 641//565
f 528//566 145//566 647//566 964//566
f 964//567 647//567 209//567 624//567
f 641//568 964//568 624//568 210//568
f 159//569 515//569 965//569 643//569
f 515//570 158//570 648//570 965//570
f 965//571 648//571 222//571 611//571
f 643//572 965//572 611//572 223//572
f 132//573 542//573 966//573 645//573
f 542//574 131//574 649//574 966//574
f 966//575 649//575 195//575 638//575
f 645//576 966//576 638//576 196//576
f 145//577 529//577 967//577 647//577
f 529//578 144//578 650//578 967//578
f 967//579 650//579 208//579 625//579
f 647//580 967//580 625//580 209//580
f 158//581 516//581 968//581 648//581
f 516//582 157//582 651//582 968//582
f 968//583 651//583 221//583 612//583
f 648//584 968//584 612//584 222//584
f 131//585 543//585 969//585 649//585
f 543//586 130//586 652//586 969//586
f 969//587 652//587 194//587 639//587
f 649//588 969//588 639//588 195//588
f 144//589 530//589 970//589 650//589
f 530//590 143//590 653//590 970//590
f 970//591 653//591 207//591 626//591
f 650//592 970//592 626//592 208//592
f 157//593 517//593 971//593 651//593
f 517//594 156//594 654//594 971//594
f 971//595 654//595 220//595 613//595
f 651//596 971//596 613//596 221//596
f 130//597 544//597 972//597 652//597
f 544//598 129//598 655//598 972//598
f 972//599 655//599 193//599 640//599
f 652//600 972//600 640//600 194//600
f 143//601 531//601 973//601 653//601
f 531//602 142//602 656//602 973//602
f 973//603 656//603 206//603 627//603
f 653//604 973//604 627//604 207//604
f 156//605 518//605 974//605 654//605
f 518//606 155//606 657//606 974//606
f 974//607 657//607 219//607 614//607
f 654//608 974//608 614//608 220//608
f 142//609 532//609 975//609 656//609
f 532//610 141//610 658//610 975//610
f 975//611 658//611 205//611 628//611
f 656//612 975//612 628//612 206//612
f 155//613 519//613 976//613 657//613
f 519//614 154//614 659//614 976//614
f 976//615 659//615 218//615 615//615
f 657//616 976//616 615//616 219//616
f 141//617 533//617 977//617 658//617
f 533//618 140//618 660//618 977//618
f 977//619 660//619 204//619 629//619
f 658//620 977//620 629//620 205//620
f 154//621 520//621 978//621 659//621
f 520//622 153//622 661//622 978//622
f 978//623 661//623 217//623 616//623
f 659//624 978//624 616//624 218//624
f 140//625 534//625 979//625 660//625
f 534//626 139//626 662//626 979//626
f 979//627 662//627 203//627 630//627
f 660//628 979//628 630//628 204//628
f 153//629 521//629 980//629 661//629
f 521//630 152//630 663//630 980//630
f 980//631 663//631 216//631 617//631
f 661//632 980//632 617//632 217//632
f 139//633 535//633 981//633 662//633
f 535//634 138//634 664//634 981//634
f 981//635 664//635 202//635 631//635
f 662//636 981//636 631//636 203//636
f 152//637 522//637 982//637 663//637
f 522//638 151//638 665//638 982//638
f 982//639 665//639 215//639 618//639
f 663//640 982//640 618//640 216//640
f 138//641 536//641 983//641 664//641
f 536//642 137//642 666//642 983//642
f 983//643 666//643 201//643 632//643
f 664//644 983//644 632//644 202//644
f 151//645 523//645 984//645 665//645
f 523//646 150//646 667//646 984//646
f 984//647 667//647 214//647 619//647
f 665//648 984//648 619//648 215//648
f 137//649 537//649 985//649 666//649
f 537//650 136//650 668//650 985//650
f 985//651 668//651 200//651 633//651
f 666//652 985//652 633//652 201//652
f 150//653 524//653 986//653 667//653
f 524//654 149//654 669//654 986//654
f 986//655 669//655 213//655 620//655
f 667//656 986//656 620//656 214//656
f 136//657 538//657 987//657 668//657
f 538//658 135//658 670//658 987//658
f 987//659 670//659 199//659 634//659
f 668//660 987//660 634//660 200//660
f 149//661 525//661 988//661 669//661
f 525//662 148//662 671//662 988//662
f 988//663 671//663 212//663 621//663
f 669//664 988//664 621//664 213//664
f 135//665 539//665 989//665 670//665
f 539//666 134//666 672//666 989//666
f 989//667 672//667 198//667 635//667
f 670//668 989//668 635//668 199//668
f 148//669 526//669 990//669 671//669
f 526//670 147//670 642//670 990//670
f 990//671 642//671 211//671 622//671
f 671//672 990//672 622//672 212//672
f 129//673 513//673 991//673 655//673
f 513//674 160//674 644//674 991//674
f 991//675 644//675 224//675 609//675
f 655//676 991//676 609//676 193//676
f 134//677 540//677 992//677 672//677
f 540//678 133//678 646//678 992//678
f 992//679 646//679 197//679 636//679
f 672//680 992//680 636//680 198//680
