# Blender MTL File: 'None'
# Material Count: 1

newmtl BubbleWrap
Ns 225.000000
Ka 1.000000 1.000000 1.000000
Kd 0.409910 0.409910 0.409910
Ks 0.500000 0.500000 0.500000
Ke 0.000000 0.000000 0.000000
Ni 1.450000
d 0.837081
illum 9
map_Bump textures\\BubbleWrap_normal.png
