%YAML 1.1
%TAG !u! tag:unity3d.com,2011:
--- !u!1045 &1
EditorBuildSettings:
  m_ObjectHideFlags: 0
  serializedVersion: 2
  m_Scenes:
  - enabled: 1
    path: Assets/Scenes/MainMenu.unity
    guid: bdcebe883e3e11b4693af66056fd2b74
  - enabled: 1
    path: Assets/Scenes/Tutorial.unity
    guid: cf8aca517800f5c4bad296410e526140
  - enabled: 1
    path: Assets/Scenes/Recycle.unity
    guid: dc767952854549343a368fd2aced5147
  - enabled: 1
    path: Assets/Scenes/Finish.unity
    guid: 04fd4c2aa021f2841ba4385a737bd092
  m_configObjects:
    Unity.XR.Oculus.Settings: {fileID: 11400000, guid: f958fd01dc2ec9144beb2832645cb91b,
      type: 2}
    Unity.XR.OpenVR.Settings: {fileID: 11400000, guid: a2e5a790311f37e42a94249e3c2d4dcc,
      type: 2}
    com.unity.xr.management.loader_settings: {fileID: 11400000, guid: 5d2b067e272bd8b40a812a12db961770,
      type: 2}
