# Blender v2.80 (sub 45) OBJ File: 'objects.blend'
# www.blender.org
mtllib carton.mtl
o Cardboardbox_01_Cube.010
v 0.159878 -0.102313 0.207896
v 0.159878 0.105009 0.207896
v -0.151105 -0.102313 0.207896
v -0.151105 0.105009 0.207896
v 0.159878 -0.102313 -0.206748
v 0.159878 0.105009 -0.206748
v -0.151105 -0.102313 -0.206748
v -0.151105 0.105009 -0.206748
v 0.155870 0.105009 0.203378
v -0.147097 0.105009 0.203378
v -0.147097 0.105009 -0.202229
v 0.155870 0.105009 -0.202229
v 0.155870 -0.097919 0.203378
v -0.147097 -0.097919 0.203378
v -0.147097 -0.097919 -0.202229
v 0.155870 -0.097919 -0.202229
v 0.272614 0.214520 -0.206748
v 0.272614 0.214520 0.207896
v 0.269780 0.217354 -0.202230
v 0.269780 0.217354 0.203378
v -0.152796 0.104789 0.207896
v -0.152796 0.104789 -0.206748
v -0.153215 0.108775 0.203378
v -0.153215 0.108775 -0.202229
v -0.304693 0.088826 0.207896
v -0.304693 0.088826 -0.206748
v -0.305112 0.092812 0.203378
v -0.305112 0.092812 -0.202229
v -0.152223 0.111011 -0.204479
v 0.158760 0.111011 -0.204479
v -0.148215 0.106809 -0.202817
v 0.154752 0.106809 -0.202817
v -0.152223 0.165929 -0.012128
v 0.158760 0.165929 -0.012128
v -0.148215 0.161461 -0.011454
v 0.154752 0.161461 -0.011454
v 0.159878 0.108351 0.205791
v -0.151105 0.108351 0.205791
v 0.155870 0.103843 0.205484
v -0.147097 0.103843 0.205484
v 0.159878 0.131774 0.025900
v -0.151105 0.131774 0.025900
v 0.155870 0.127266 0.025593
v -0.147097 0.127266 0.025593
vt 0.420061 0.435156
vt 0.420061 0.538817
vt 0.575553 0.538817
vt 0.575553 0.435156
vt 0.975693 0.435156
vt 0.975693 0.538817
vt 1.183015 0.538817
vt 1.183015 0.435156
vt 0.575553 0.435156
vt 0.575553 0.538817
vt 0.420061 0.538817
vt 0.420061 0.435156
vt 0.183015 0.435156
vt 0.183015 0.538817
vt -0.024307 0.538817
vt -0.024307 0.435156
vt 0.975693 0.575553
vt 1.183015 0.575553
vt 1.183015 0.420061
vt 0.975693 0.420061
vt 0.183015 0.575553
vt -0.024307 0.575553
vt -0.024307 0.576398
vt 0.183015 0.576398
vt 0.422065 0.538817
vt 0.573548 0.538817
vt 0.573548 0.437353
vt 0.422065 0.437353
vt 0.422624 0.539717
vt 0.574108 0.539717
vt 0.573548 0.538817
vt 0.575553 0.540488
vt 0.573548 0.538234
vt 0.422065 0.538817
vt 0.363693 0.593572
vt 0.365110 0.594989
vt 0.180755 0.573548
vt -0.022048 0.573548
vt -0.022048 0.422065
vt 0.180755 0.422065
vt 0.422065 0.437353
vt 0.573548 0.437353
vt 0.977952 0.538817
vt 1.180755 0.538817
vt 1.180755 0.437353
vt 0.977952 0.437353
vt 0.180755 0.538817
vt -0.022048 0.538817
vt -0.022048 0.437353
vt 0.180755 0.437353
vt 0.975693 0.593572
vt 1.183015 0.593572
vt 1.180755 0.594989
vt 0.977952 0.594989
vt 0.180755 0.422065
vt -0.022048 0.422065
vt -0.022048 0.365110
vt 0.180755 0.365110
vt 0.975693 0.420061
vt 1.183015 0.420061
vt 1.183015 0.363693
vt 0.975693 0.363693
vt 0.365110 0.594989
vt 0.363693 0.593572
vt 0.975693 0.576398
vt 0.977952 0.576608
vt 0.977952 0.652556
vt 0.975693 0.652347
vt 0.975693 0.575553
vt 0.977952 0.573548
vt 0.180755 0.573548
vt 0.180755 0.576608
vt 1.180755 0.573548
vt 1.180755 0.576608
vt 0.183015 0.530725
vt -0.024307 0.530725
vt -0.022048 0.532718
vt 0.180755 0.532718
vt -0.024307 0.652347
vt 0.183015 0.652347
vt 0.180755 0.652556
vt 1.180755 0.652556
vt 0.181880 0.541818
vt 0.181049 0.539717
vt 0.085368 0.567043
vt 0.085705 0.569277
vt 0.576112 0.541818
vt 0.420620 0.541818
vt 0.183015 0.538817
vt 0.420620 0.569277
vt 0.576112 0.569277
vt 0.574108 0.567043
vt 0.422624 0.567043
vt 0.181880 0.420620
vt 0.181880 0.576112
vt 0.085705 0.576112
vt 0.085705 0.420620
vt 0.181049 0.539717
vt 0.181880 0.541818
vt 0.085705 0.569277
vt 0.085368 0.567043
vt 0.181049 0.574108
vt 0.181049 0.422624
vt 0.085368 0.422624
vt 0.085368 0.574108
vt 0.976745 0.540488
vt 0.976899 0.538234
vt 1.066844 0.549945
vt 1.066691 0.552199
vt 0.977952 0.422065
vt 0.976899 0.573548
vt 0.976899 0.422065
vt 0.422065 0.538234
vt 0.420061 0.540488
vt 0.575553 0.552199
vt 0.420061 0.552199
vt 0.422065 0.549945
vt 0.573548 0.549945
vt 1.066844 0.573548
vt 1.066844 0.422065
vt 0.976899 0.538234
vt 0.976745 0.540488
vt 1.066691 0.552199
vt 1.066844 0.549945
vt 0.976745 0.575553
vt 0.976745 0.420061
vt 1.066691 0.420061
vt 1.066691 0.575553
vn 0.0000 0.0000 1.0000
vn -1.0000 0.0000 0.0000
vn 0.0000 0.0000 -1.0000
vn 1.0000 0.0000 -0.0000
vn 0.0000 -1.0000 -0.0000
vn 0.1289 -0.9917 -0.0000
vn 0.0000 0.3103 0.9506
vn -0.5157 0.0000 -0.8568
vn -0.5586 0.5707 0.6019
vn 0.0000 1.0000 0.0000
vn 0.7071 0.7071 0.0000
vn -0.7022 0.7120 0.0000
vn 0.6968 -0.7173 -0.0000
vn -0.5586 0.5707 -0.6019
vn -0.0782 0.7440 0.6636
vn 0.3599 0.7924 0.4925
vn 0.3599 0.7924 -0.4925
vn 0.5242 0.8516 -0.0000
vn -0.9945 -0.1045 0.0000
vn 0.1045 -0.9945 0.0000
vn -0.0782 0.7440 -0.6636
vn -0.1045 0.9945 0.0000
vn -0.7459 -0.6404 0.1829
vn 0.0000 0.3536 -0.9354
vn -0.6791 -0.3354 0.6529
vn 0.6093 0.0038 0.7929
vn 0.0000 0.1490 0.9888
vn -0.0000 0.9616 -0.2745
vn 0.7459 -0.6404 0.1829
vn 0.0000 -0.9616 0.2746
vn 0.7475 -0.6587 -0.0858
vn 0.0000 0.8749 0.4842
vn 0.5157 0.0000 -0.8568
vn 0.0000 0.5330 0.8461
vn -0.0000 0.0679 -0.9977
vn 0.0000 -0.9916 -0.1291
vn -0.7475 -0.6587 -0.0858
vn 0.0000 0.9916 0.1291
usemtl Carton
s off
f 1/1/1 2/2/1 4/3/1 3/4/1
f 3/5/2 4/6/2 8/7/2 7/8/2
f 7/9/3 8/10/3 6/11/3 5/12/3
f 5/13/4 6/14/4 2/15/4 1/16/4
f 3/17/5 7/18/5 5/19/5 1/20/5
f 8/21/6 4/22/6 21/23/6 22/24/6
f 12/25/1 11/26/1 15/27/1 16/28/1
f 11/26/7 12/25/7 32/29/7 31/30/7
f 10/31/8 4/3/8 38/32/8 40/33/8
f 9/34/9 2/2/9 18/35/9 20/36/9
f 15/37/10 14/38/10 13/39/10 16/40/10
f 10/31/3 9/34/3 13/41/3 14/42/3
f 9/43/2 12/44/2 16/45/2 13/46/2
f 11/47/4 10/48/4 14/49/4 15/50/4
f 18/51/11 17/52/11 19/53/11 20/54/11
f 12/55/12 9/56/12 20/57/12 19/58/12
f 2/59/13 6/60/13 17/61/13 18/62/13
f 6/11/14 12/25/14 19/63/14 17/64/14
f 21/65/15 23/66/15 27/67/15 25/68/15
f 4/69/16 10/70/16 23/66/16 21/65/16
f 11/71/17 8/21/17 22/24/17 24/72/17
f 10/70/18 11/73/18 24/74/18 23/66/18
f 26/75/19 25/76/19 27/77/19 28/78/19
f 22/24/20 21/23/20 25/79/20 26/80/20
f 24/72/21 22/24/21 26/80/21 28/81/21
f 23/66/22 24/74/22 28/82/22 27/67/22
f 29/83/23 31/84/23 35/85/23 33/86/23
f 6/11/24 8/10/24 29/87/24 30/88/24
f 8/89/25 11/47/25 31/84/25 29/83/25
f 12/25/26 6/11/26 30/88/26 32/29/26
f 34/90/27 33/91/27 35/92/27 36/93/27
f 30/94/28 29/95/28 33/96/28 34/97/28
f 32/98/29 30/99/29 34/100/29 36/101/29
f 31/102/30 32/103/30 36/104/30 35/105/30
f 37/106/31 39/107/31 43/108/31 41/109/31
f 9/110/32 10/70/32 40/111/32 39/112/32
f 2/2/33 9/34/33 39/113/33 37/114/33
f 4/3/34 2/2/34 37/114/34 38/32/34
f 42/115/35 41/116/35 43/117/35 44/118/35
f 39/112/36 40/111/36 44/119/36 43/120/36
f 40/121/37 38/122/37 42/123/37 44/124/37
f 38/125/38 37/126/38 41/127/38 42/128/38
